Creating new Library for Lib name=Lib mapped to filesystem path=./Lib
Overwriting lib.defs file

The following Nets exist in Cell: And
Net: N__0	 is connected to Term: A	
Net: N__1	 is connected to Term: B	
Net: N__2	 is connected to Term: Y	

The following Nets exist in Cell: Or
Net: N__0	 is connected to Term: A	
Net: N__1	 is connected to Term: B	
Net: N__2	 is connected to Term: Y	

The following Nets exist in Cell: Xor
Net: N__0	 is connected to Term: A	
Net: N__1	 is connected to Term: B	
Net: N__2	 is connected to Term: Y	

Creating HalfAdder with 1 And Inst and 1 Xor Inst

The following Nets exist in Cell: HalfAdder
Net: N__0	 is connected to Term: A	Xor1.A	And1.A	
Net: N__1	 is connected to Term: B	Xor1.B	And1.B	
Net: N__2	 is connected to Term: C	And1.Y	
Net: N__3	 is connected to Term: S	Xor1.Y	

Creating FullAdder with two HalfAdder Insts, one Or Inst

The following Nets exist in Cell: FullAdder
Net: N__0	 is connected to Term: A	Ha1.A	
Net: N__1	 is connected to Term: B	Ha1.B	
Net: N__2	 is connected to Term: Ci	Ha2.B	
Net: N__3	 is connected to Term: Co	Or1.Y	
Net: N__4	 is connected to Term: S	Ha2.S	
Net: N__5	 is connected to Term: Ha2.A	Ha1.S	
Net: N__6	 is connected to Term: Or1.A	Ha1.C	
Net: N__7	 is connected to Term: Or1.B	Ha2.C	
