Design Lib3bitAdder/Adder3bit/netlist maskLayout block BBOX 0 0 0 0
Inst Fa0/Ha1/And1 OF Lib/And/netlist R0 LOC (0 0) BBOX 0 0 0 0
Inst Fa0/Ha1/Xor1 OF Lib/Xor/netlist R0 LOC (0 0) BBOX 0 0 0 0
Inst Fa0/Ha2/And1 OF Lib/And/netlist R0 LOC (0 0) BBOX 0 0 0 0
Inst Fa0/Ha2/Xor1 OF Lib/Xor/netlist R0 LOC (0 0) BBOX 0 0 0 0
Inst Fa0/Or1 OF Lib/Or/netlist R0 LOC (0 0) BBOX 0 0 0 0
Inst Fa1/Ha1/And1 OF Lib/And/netlist R0 LOC (0 0) BBOX 0 0 0 0
Inst Fa1/Ha1/Xor1 OF Lib/Xor/netlist R0 LOC (0 0) BBOX 0 0 0 0
Inst Fa1/Ha2/And1 OF Lib/And/netlist R0 LOC (0 0) BBOX 0 0 0 0
Inst Fa1/Ha2/Xor1 OF Lib/Xor/netlist R0 LOC (0 0) BBOX 0 0 0 0
Inst Fa1/Or1 OF Lib/Or/netlist R0 LOC (0 0) BBOX 0 0 0 0
Inst Fa2/Ha1/And1 OF Lib/And/netlist R0 LOC (0 0) BBOX 0 0 0 0
Inst Fa2/Ha1/Xor1 OF Lib/Xor/netlist R0 LOC (0 0) BBOX 0 0 0 0
Inst Fa2/Ha2/And1 OF Lib/And/netlist R0 LOC (0 0) BBOX 0 0 0 0
Inst Fa2/Ha2/Xor1 OF Lib/Xor/netlist R0 LOC (0 0) BBOX 0 0 0 0
Inst Fa2/Or1 OF Lib/Or/netlist R0 LOC (0 0) BBOX 0 0 0 0
InstTerm Fa0/Ha1/And1 of A is on A0
InstTerm Fa0/Ha1/And1 of B is on B0
InstTerm Fa0/Ha1/And1 of Y is on Fa0/H1c
InstTerm Fa0/Ha1/Xor1 of A is on A0
InstTerm Fa0/Ha1/Xor1 of B is on B0
InstTerm Fa0/Ha1/Xor1 of Y is on Fa0/H1s
InstTerm Fa0/Ha2/And1 of A is on Fa0/H1s
InstTerm Fa0/Ha2/And1 of B is on Ci
InstTerm Fa0/Ha2/And1 of Y is on Fa0/H2c
InstTerm Fa0/Ha2/Xor1 of A is on Fa0/H1s
InstTerm Fa0/Ha2/Xor1 of B is on Ci
InstTerm Fa0/Ha2/Xor1 of Y is on S0
InstTerm Fa0/Or1 of A is on Fa0/H1c
InstTerm Fa0/Or1 of B is on Fa0/H2c
InstTerm Fa0/Or1 of Y is on C01
InstTerm Fa1/Ha1/And1 of A is on A1
InstTerm Fa1/Ha1/And1 of B is on B1
InstTerm Fa1/Ha1/And1 of Y is on Fa1/H1c
InstTerm Fa1/Ha1/Xor1 of A is on A1
InstTerm Fa1/Ha1/Xor1 of B is on B1
InstTerm Fa1/Ha1/Xor1 of Y is on Fa1/H1s
InstTerm Fa1/Ha2/And1 of A is on Fa1/H1s
InstTerm Fa1/Ha2/And1 of B is on C01
InstTerm Fa1/Ha2/And1 of Y is on Fa1/H2c
InstTerm Fa1/Ha2/Xor1 of A is on Fa1/H1s
InstTerm Fa1/Ha2/Xor1 of B is on C01
InstTerm Fa1/Ha2/Xor1 of Y is on S1
InstTerm Fa1/Or1 of A is on Fa1/H1c
InstTerm Fa1/Or1 of B is on Fa1/H2c
InstTerm Fa1/Or1 of Y is on C12
InstTerm Fa2/Ha1/And1 of A is on A2
InstTerm Fa2/Ha1/And1 of B is on B2
InstTerm Fa2/Ha1/And1 of Y is on Fa2/H1c
InstTerm Fa2/Ha1/Xor1 of A is on A2
InstTerm Fa2/Ha1/Xor1 of B is on B2
InstTerm Fa2/Ha1/Xor1 of Y is on Fa2/H1s
InstTerm Fa2/Ha2/And1 of A is on Fa2/H1s
InstTerm Fa2/Ha2/And1 of B is on C12
InstTerm Fa2/Ha2/And1 of Y is on Fa2/H2c
InstTerm Fa2/Ha2/Xor1 of A is on Fa2/H1s
InstTerm Fa2/Ha2/Xor1 of B is on C12
InstTerm Fa2/Ha2/Xor1 of Y is on S2
InstTerm Fa2/Or1 of A is on Fa2/H1c
InstTerm Fa2/Or1 of B is on Fa2/H2c
InstTerm Fa2/Or1 of Y is on Co
Net A0 signal 
Net A1 signal 
Net A2 signal 
Net A3 signal 
Net B0 signal 
Net B1 signal 
Net B2 signal 
Net B3 signal 
Net C01 signal 
Net C12 signal 
Net Ci signal 
Net Co signal 
Net Fa0/H1c signal 
Net Fa0/H1s signal 
Net Fa0/H2c signal 
Net Fa1/H1c signal 
Net Fa1/H1s signal 
Net Fa1/H2c signal 
Net Fa2/H1c signal 
Net Fa2/H1s signal 
Net Fa2/H2c signal 
Net S0 signal 
Net S1 signal 
Net S2 signal 
Net S3 signal 
Term A0 on A0 type input
Term A1 on A1 type input
Term A2 on A2 type input
Term A3 on A3 type input
Term B0 on B0 type input
Term B1 on B1 type input
Term B2 on B2 type input
Term B3 on B3 type input
Term Ci on Ci type input
Term Co on Co type output
Term S0 on S0 type output
Term S1 on S1 type output
Term S2 on S2 type output
Term S3 on S3 type output
