Created new Lib3bitAdder in directory Lib3bit

Appending new Lib def for Lib3bitAdder->Lib3bit to LibDefs file = lib.defs
  ASSERT [PASS]  [$design isValid] 
  ASSERT [PASS]  [$design getRefCount] == 1 
  ASSERT [PASS]  [ string equal [[$design getType] getName] "Design"] 
  ASSERT [PASS]  [string equal [[$design getViewType] getName] "maskLayout"] 
  ASSERT [PASS]  [[$design getCellType] typeEnum] == $oa::oacBlockCellType 
{As expected, cannot instantiate Modules from other Designs}
  ASSERT [PASS]  [$inst isValid] 
Created ModScalarInst 'Xor1'
  ASSERT [PASS]  [$inst isValid] 
Created ModScalarInst 'And1'
Creating Design 'HA'.
  ASSERT [PASS]  [$modHA isValid] 
  ASSERT [PASS]  [ $net isValid] 
  ASSERT [PASS]  [string equal [$net getModule] $module] 
  ASSERT [PASS]  [string equal [$net getName]   $netName] 
  ASSERT [PASS]  [string equal [[$net getType] getName] "ModScalarNet"] 
  ASSERT [PASS]  [string equal [[$net getSigType] getName] "signal"] 
  ASSERT [PASS]  ![ $net isGlobal] 
  ASSERT [PASS]  ![ $net isImplicit] 
  ASSERT [PASS]  [ $net isEmpty] 
  ASSERT [PASS]  [[$net getEquivalentNets] isEmpty] 
  ASSERT [PASS]  [[$net getInstTerms] isEmpty] 
  ASSERT [PASS]  [[$net getTerms] isEmpty] 
  Created ModScalarNet 'A'
  ASSERT [PASS]  [string equal [$net  getModule] $module] 
  ASSERT [PASS]  [string equal [[$net getType] getName] "ModScalarNet"] 
  ASSERT [PASS]  [string equal [[$net  getSigType] getName] "signal"] 
  ASSERT [PASS]  ![$net  isGlobal] 
  ASSERT [PASS]  [string equal [$term  getModule] $module] 
  ASSERT [PASS]  [string equal [[$term getType] getName] "ModScalarTerm"] 
  ASSERT [PASS]  [[$term  getTermType] typeEnum]  == $ioDir 
  ASSERT [PASS]  [string equal [$term  getNet] $net] 
  Term 'A' created attached to Net 'A'
  ASSERT [PASS]  [$collTermsOnNet getCount]  == 1 
  ASSERT [PASS]  [string equal $gotTerm $term] 
  ASSERT [PASS]  [ $net isValid] 
  ASSERT [PASS]  [string equal [$net getModule] $module] 
  ASSERT [PASS]  [string equal [$net getName]   $netName] 
  ASSERT [PASS]  [string equal [[$net getType] getName] "ModScalarNet"] 
  ASSERT [PASS]  [string equal [[$net getSigType] getName] "signal"] 
  ASSERT [PASS]  ![ $net isGlobal] 
  ASSERT [PASS]  ![ $net isImplicit] 
  ASSERT [PASS]  [ $net isEmpty] 
  ASSERT [PASS]  [[$net getEquivalentNets] isEmpty] 
  ASSERT [PASS]  [[$net getInstTerms] isEmpty] 
  ASSERT [PASS]  [[$net getTerms] isEmpty] 
  Created ModScalarNet 'B'
  ASSERT [PASS]  [string equal [$net  getModule] $module] 
  ASSERT [PASS]  [string equal [[$net getType] getName] "ModScalarNet"] 
  ASSERT [PASS]  [string equal [[$net  getSigType] getName] "signal"] 
  ASSERT [PASS]  ![$net  isGlobal] 
  ASSERT [PASS]  [string equal [$term  getModule] $module] 
  ASSERT [PASS]  [string equal [[$term getType] getName] "ModScalarTerm"] 
  ASSERT [PASS]  [[$term  getTermType] typeEnum]  == $ioDir 
  ASSERT [PASS]  [string equal [$term  getNet] $net] 
  Term 'B' created attached to Net 'B'
  ASSERT [PASS]  [$collTermsOnNet getCount]  == 1 
  ASSERT [PASS]  [string equal $gotTerm $term] 
  ASSERT [PASS]  [ $net isValid] 
  ASSERT [PASS]  [string equal [$net getModule] $module] 
  ASSERT [PASS]  [string equal [$net getName]   $netName] 
  ASSERT [PASS]  [string equal [[$net getType] getName] "ModScalarNet"] 
  ASSERT [PASS]  [string equal [[$net getSigType] getName] "signal"] 
  ASSERT [PASS]  ![ $net isGlobal] 
  ASSERT [PASS]  ![ $net isImplicit] 
  ASSERT [PASS]  [ $net isEmpty] 
  ASSERT [PASS]  [[$net getEquivalentNets] isEmpty] 
  ASSERT [PASS]  [[$net getInstTerms] isEmpty] 
  ASSERT [PASS]  [[$net getTerms] isEmpty] 
  Created ModScalarNet 'C'
  ASSERT [PASS]  [string equal [$net  getModule] $module] 
  ASSERT [PASS]  [string equal [[$net getType] getName] "ModScalarNet"] 
  ASSERT [PASS]  [string equal [[$net  getSigType] getName] "signal"] 
  ASSERT [PASS]  ![$net  isGlobal] 
  ASSERT [PASS]  [string equal [$term  getModule] $module] 
  ASSERT [PASS]  [string equal [[$term getType] getName] "ModScalarTerm"] 
  ASSERT [PASS]  [[$term  getTermType] typeEnum]  == $ioDir 
  ASSERT [PASS]  [string equal [$term  getNet] $net] 
  Term 'C' created attached to Net 'C'
  ASSERT [PASS]  [$collTermsOnNet getCount]  == 1 
  ASSERT [PASS]  [string equal $gotTerm $term] 
  ASSERT [PASS]  [ $net isValid] 
  ASSERT [PASS]  [string equal [$net getModule] $module] 
  ASSERT [PASS]  [string equal [$net getName]   $netName] 
  ASSERT [PASS]  [string equal [[$net getType] getName] "ModScalarNet"] 
  ASSERT [PASS]  [string equal [[$net getSigType] getName] "signal"] 
  ASSERT [PASS]  ![ $net isGlobal] 
  ASSERT [PASS]  ![ $net isImplicit] 
  ASSERT [PASS]  [ $net isEmpty] 
  ASSERT [PASS]  [[$net getEquivalentNets] isEmpty] 
  ASSERT [PASS]  [[$net getInstTerms] isEmpty] 
  ASSERT [PASS]  [[$net getTerms] isEmpty] 
  Created ModScalarNet 'S'
  ASSERT [PASS]  [string equal [$net  getModule] $module] 
  ASSERT [PASS]  [string equal [[$net getType] getName] "ModScalarNet"] 
  ASSERT [PASS]  [string equal [[$net  getSigType] getName] "signal"] 
  ASSERT [PASS]  ![$net  isGlobal] 
  ASSERT [PASS]  [string equal [$term  getModule] $module] 
  ASSERT [PASS]  [string equal [[$term getType] getName] "ModScalarTerm"] 
  ASSERT [PASS]  [[$term  getTermType] typeEnum]  == $ioDir 
  ASSERT [PASS]  [string equal [$term  getNet] $net] 
  Term 'S' created attached to Net 'S'
  ASSERT [PASS]  [$collTermsOnNet getCount]  == 1 
  ASSERT [PASS]  [string equal $gotTerm $term] 
  ASSERT [PASS]  [getNumNets  $modHA] == 4 
  ASSERT [PASS]  [getNumTerms $modHA] == 4 
  Created InstTerm of "A" on Inst "Xor1", attached to net "A"
  ASSERT [PASS]  [$instTerm isValid] 
  Created InstTerm of "B" on Inst "Xor1", attached to net "B"
  ASSERT [PASS]  [$instTerm isValid] 
  Created InstTerm of "Y" on Inst "Xor1", attached to net "S"
  ASSERT [PASS]  [$instTerm isValid] 
  Created InstTerm of "A" on Inst "And1", attached to net "A"
  ASSERT [PASS]  [$instTerm isValid] 
  Created InstTerm of "B" on Inst "And1", attached to net "B"
  ASSERT [PASS]  [$instTerm isValid] 
  Created InstTerm of "Y" on Inst "And1", attached to net "C"
  ASSERT [PASS]  [$instTerm isValid] 
  ASSERT [PASS]  [getNumInstTerms $modHA] == 6 
  ASSERT [PASS]  [$inst isValid] 
Created ModModuleScalarInst 'Ha1'
  ASSERT [PASS]  [$inst isValid] 
Created ModModuleScalarInst 'Ha2'
  ASSERT [PASS]  [$inst isValid] 
Created ModScalarInst 'Or1'
  ASSERT [PASS]  [ $net isValid] 
  ASSERT [PASS]  [string equal [$net getModule] $module] 
  ASSERT [PASS]  [string equal [$net getName]   $netName] 
  ASSERT [PASS]  [string equal [[$net getType] getName] "ModScalarNet"] 
  ASSERT [PASS]  [string equal [[$net getSigType] getName] "signal"] 
  ASSERT [PASS]  ![ $net isGlobal] 
  ASSERT [PASS]  ![ $net isImplicit] 
  ASSERT [PASS]  [ $net isEmpty] 
  ASSERT [PASS]  [[$net getEquivalentNets] isEmpty] 
  ASSERT [PASS]  [[$net getInstTerms] isEmpty] 
  ASSERT [PASS]  [[$net getTerms] isEmpty] 
Created ModScalarNet 'A'
  ASSERT [PASS]  [string equal [$net  getModule] $module] 
  ASSERT [PASS]  [string equal [[$net getType] getName] "ModScalarNet"] 
  ASSERT [PASS]  [string equal [[$net  getSigType] getName] "signal"] 
  ASSERT [PASS]  ![$net  isGlobal] 
  ASSERT [PASS]  [string equal [$term  getModule] $module] 
  ASSERT [PASS]  [string equal [[$term getType] getName] "ModScalarTerm"] 
  ASSERT [PASS]  [[$term  getTermType] typeEnum]  == $ioDir 
  ASSERT [PASS]  [string equal [$term  getNet] $net] 
Term 'A' created attached to Net 'A'
  ASSERT [PASS]  [$collTermsOnNet getCount]  == 1 
  ASSERT [PASS]  [string equal $gotTerm $term] 
  ASSERT [PASS]  [ $net isValid] 
  ASSERT [PASS]  [string equal [$net getModule] $module] 
  ASSERT [PASS]  [string equal [$net getName]   $netName] 
  ASSERT [PASS]  [string equal [[$net getType] getName] "ModScalarNet"] 
  ASSERT [PASS]  [string equal [[$net getSigType] getName] "signal"] 
  ASSERT [PASS]  ![ $net isGlobal] 
  ASSERT [PASS]  ![ $net isImplicit] 
  ASSERT [PASS]  [ $net isEmpty] 
  ASSERT [PASS]  [[$net getEquivalentNets] isEmpty] 
  ASSERT [PASS]  [[$net getInstTerms] isEmpty] 
  ASSERT [PASS]  [[$net getTerms] isEmpty] 
Created ModScalarNet 'B'
  ASSERT [PASS]  [string equal [$net  getModule] $module] 
  ASSERT [PASS]  [string equal [[$net getType] getName] "ModScalarNet"] 
  ASSERT [PASS]  [string equal [[$net  getSigType] getName] "signal"] 
  ASSERT [PASS]  ![$net  isGlobal] 
  ASSERT [PASS]  [string equal [$term  getModule] $module] 
  ASSERT [PASS]  [string equal [[$term getType] getName] "ModScalarTerm"] 
  ASSERT [PASS]  [[$term  getTermType] typeEnum]  == $ioDir 
  ASSERT [PASS]  [string equal [$term  getNet] $net] 
Term 'B' created attached to Net 'B'
  ASSERT [PASS]  [$collTermsOnNet getCount]  == 1 
  ASSERT [PASS]  [string equal $gotTerm $term] 
  ASSERT [PASS]  [ $net isValid] 
  ASSERT [PASS]  [string equal [$net getModule] $module] 
  ASSERT [PASS]  [string equal [$net getName]   $netName] 
  ASSERT [PASS]  [string equal [[$net getType] getName] "ModScalarNet"] 
  ASSERT [PASS]  [string equal [[$net getSigType] getName] "signal"] 
  ASSERT [PASS]  ![ $net isGlobal] 
  ASSERT [PASS]  ![ $net isImplicit] 
  ASSERT [PASS]  [ $net isEmpty] 
  ASSERT [PASS]  [[$net getEquivalentNets] isEmpty] 
  ASSERT [PASS]  [[$net getInstTerms] isEmpty] 
  ASSERT [PASS]  [[$net getTerms] isEmpty] 
Created ModScalarNet 'Ci'
  ASSERT [PASS]  [string equal [$net  getModule] $module] 
  ASSERT [PASS]  [string equal [[$net getType] getName] "ModScalarNet"] 
  ASSERT [PASS]  [string equal [[$net  getSigType] getName] "signal"] 
  ASSERT [PASS]  ![$net  isGlobal] 
  ASSERT [PASS]  [string equal [$term  getModule] $module] 
  ASSERT [PASS]  [string equal [[$term getType] getName] "ModScalarTerm"] 
  ASSERT [PASS]  [[$term  getTermType] typeEnum]  == $ioDir 
  ASSERT [PASS]  [string equal [$term  getNet] $net] 
Term 'Ci' created attached to Net 'Ci'
  ASSERT [PASS]  [$collTermsOnNet getCount]  == 1 
  ASSERT [PASS]  [string equal $gotTerm $term] 
  ASSERT [PASS]  [ $net isValid] 
  ASSERT [PASS]  [string equal [$net getModule] $module] 
  ASSERT [PASS]  [string equal [$net getName]   $netName] 
  ASSERT [PASS]  [string equal [[$net getType] getName] "ModScalarNet"] 
  ASSERT [PASS]  [string equal [[$net getSigType] getName] "signal"] 
  ASSERT [PASS]  ![ $net isGlobal] 
  ASSERT [PASS]  ![ $net isImplicit] 
  ASSERT [PASS]  [ $net isEmpty] 
  ASSERT [PASS]  [[$net getEquivalentNets] isEmpty] 
  ASSERT [PASS]  [[$net getInstTerms] isEmpty] 
  ASSERT [PASS]  [[$net getTerms] isEmpty] 
Created ModScalarNet 'Co'
  ASSERT [PASS]  [string equal [$net  getModule] $module] 
  ASSERT [PASS]  [string equal [[$net getType] getName] "ModScalarNet"] 
  ASSERT [PASS]  [string equal [[$net  getSigType] getName] "signal"] 
  ASSERT [PASS]  ![$net  isGlobal] 
  ASSERT [PASS]  [string equal [$term  getModule] $module] 
  ASSERT [PASS]  [string equal [[$term getType] getName] "ModScalarTerm"] 
  ASSERT [PASS]  [[$term  getTermType] typeEnum]  == $ioDir 
  ASSERT [PASS]  [string equal [$term  getNet] $net] 
Term 'Co' created attached to Net 'Co'
  ASSERT [PASS]  [$collTermsOnNet getCount]  == 1 
  ASSERT [PASS]  [string equal $gotTerm $term] 
  ASSERT [PASS]  [ $net isValid] 
  ASSERT [PASS]  [string equal [$net getModule] $module] 
  ASSERT [PASS]  [string equal [$net getName]   $netName] 
  ASSERT [PASS]  [string equal [[$net getType] getName] "ModScalarNet"] 
  ASSERT [PASS]  [string equal [[$net getSigType] getName] "signal"] 
  ASSERT [PASS]  ![ $net isGlobal] 
  ASSERT [PASS]  ![ $net isImplicit] 
  ASSERT [PASS]  [ $net isEmpty] 
  ASSERT [PASS]  [[$net getEquivalentNets] isEmpty] 
  ASSERT [PASS]  [[$net getInstTerms] isEmpty] 
  ASSERT [PASS]  [[$net getTerms] isEmpty] 
Created ModScalarNet 'S'
  ASSERT [PASS]  [string equal [$net  getModule] $module] 
  ASSERT [PASS]  [string equal [[$net getType] getName] "ModScalarNet"] 
  ASSERT [PASS]  [string equal [[$net  getSigType] getName] "signal"] 
  ASSERT [PASS]  ![$net  isGlobal] 
  ASSERT [PASS]  [string equal [$term  getModule] $module] 
  ASSERT [PASS]  [string equal [[$term getType] getName] "ModScalarTerm"] 
  ASSERT [PASS]  [[$term  getTermType] typeEnum]  == $ioDir 
  ASSERT [PASS]  [string equal [$term  getNet] $net] 
Term 'S' created attached to Net 'S'
  ASSERT [PASS]  [$collTermsOnNet getCount]  == 1 
  ASSERT [PASS]  [string equal $gotTerm $term] 
  ASSERT [PASS]  [ $net isValid] 
  ASSERT [PASS]  [string equal [$net getModule] $module] 
  ASSERT [PASS]  [string equal [$net getName]   $netName] 
  ASSERT [PASS]  [string equal [[$net getType] getName] "ModScalarNet"] 
  ASSERT [PASS]  [string equal [[$net getSigType] getName] "signal"] 
  ASSERT [PASS]  ![ $net isGlobal] 
  ASSERT [PASS]  ![ $net isImplicit] 
  ASSERT [PASS]  [ $net isEmpty] 
  ASSERT [PASS]  [[$net getEquivalentNets] isEmpty] 
  ASSERT [PASS]  [[$net getInstTerms] isEmpty] 
  ASSERT [PASS]  [[$net getTerms] isEmpty] 
Created ModScalarNet 'H1c'
  ASSERT [PASS]  [ $net isValid] 
  ASSERT [PASS]  [string equal [$net getModule] $module] 
  ASSERT [PASS]  [string equal [$net getName]   $netName] 
  ASSERT [PASS]  [string equal [[$net getType] getName] "ModScalarNet"] 
  ASSERT [PASS]  [string equal [[$net getSigType] getName] "signal"] 
  ASSERT [PASS]  ![ $net isGlobal] 
  ASSERT [PASS]  ![ $net isImplicit] 
  ASSERT [PASS]  [ $net isEmpty] 
  ASSERT [PASS]  [[$net getEquivalentNets] isEmpty] 
  ASSERT [PASS]  [[$net getInstTerms] isEmpty] 
  ASSERT [PASS]  [[$net getTerms] isEmpty] 
Created ModScalarNet 'H1s'
  ASSERT [PASS]  [ $net isValid] 
  ASSERT [PASS]  [string equal [$net getModule] $module] 
  ASSERT [PASS]  [string equal [$net getName]   $netName] 
  ASSERT [PASS]  [string equal [[$net getType] getName] "ModScalarNet"] 
  ASSERT [PASS]  [string equal [[$net getSigType] getName] "signal"] 
  ASSERT [PASS]  ![ $net isGlobal] 
  ASSERT [PASS]  ![ $net isImplicit] 
  ASSERT [PASS]  [ $net isEmpty] 
  ASSERT [PASS]  [[$net getEquivalentNets] isEmpty] 
  ASSERT [PASS]  [[$net getInstTerms] isEmpty] 
  ASSERT [PASS]  [[$net getTerms] isEmpty] 
Created ModScalarNet 'H2c'
  ASSERT [PASS]  [getNumTerms $modFA] == 5 
  modInst 'Or1' type=ModScalarInst InstHeader type=ModInstHeader
  modInst 'Ha2' type=ModModuleScalarInst InstHeader type=ModModuleInstHeader
  modInst 'Ha1' type=ModModuleScalarInst InstHeader type=ModModuleInstHeader
     modModuleInstHeader HalfAdderMod
       modInst 'Ha2'
       modInst 'Ha1'
  Created InstTerm of "A" on Inst "Ha1", attached to net "A"
  ASSERT [PASS]  [$instTerm isValid] 
  Created InstTerm of "B" on Inst "Ha1", attached to net "B"
  ASSERT [PASS]  [$instTerm isValid] 
  Created InstTerm of "C" on Inst "Ha1", attached to net "H1c"
  ASSERT [PASS]  [$instTerm isValid] 
  Created InstTerm of "S" on Inst "Ha1", attached to net "H1s"
  ASSERT [PASS]  [$instTerm isValid] 
  Created InstTerm of "A" on Inst "Ha2", attached to net "H1s"
  ASSERT [PASS]  [$instTerm isValid] 
  Created InstTerm of "B" on Inst "Ha2", attached to net "Ci"
  ASSERT [PASS]  [$instTerm isValid] 
  Created InstTerm of "C" on Inst "Ha2", attached to net "H2c"
  ASSERT [PASS]  [$instTerm isValid] 
  Created InstTerm of "S" on Inst "Ha2", attached to net "S"
  ASSERT [PASS]  [$instTerm isValid] 
  Created InstTerm of "A" on Inst "Or1", attached to net "H1c"
  ASSERT [PASS]  [$instTerm isValid] 
  Created InstTerm of "B" on Inst "Or1", attached to net "H2c"
  ASSERT [PASS]  [$instTerm isValid] 
  Created InstTerm of "Y" on Inst "Or1", attached to net "Co"
  ASSERT [PASS]  [$instTerm isValid] 
  ASSERT [PASS]  [$inst isValid] 
Created ModModuleScalarInst 'Fa0'
  ASSERT [PASS]  [$inst isValid] 
Created ModModuleScalarInst 'Fa1'
  ASSERT [PASS]  [$inst isValid] 
Created ModModuleScalarInst 'Fa2'
  ASSERT [PASS]  [ $net isValid] 
  ASSERT [PASS]  [string equal [$net getModule] $module] 
  ASSERT [PASS]  [string equal [$net getName]   $netName] 
  ASSERT [PASS]  [string equal [[$net getType] getName] "ModScalarNet"] 
  ASSERT [PASS]  [string equal [[$net getSigType] getName] "signal"] 
  ASSERT [PASS]  ![ $net isGlobal] 
  ASSERT [PASS]  ![ $net isImplicit] 
  ASSERT [PASS]  [ $net isEmpty] 
  ASSERT [PASS]  [[$net getEquivalentNets] isEmpty] 
  ASSERT [PASS]  [[$net getInstTerms] isEmpty] 
  ASSERT [PASS]  [[$net getTerms] isEmpty] 
Created ModScalarNet 'A0'
  ASSERT [PASS]  [string equal [$net  getModule] $module] 
  ASSERT [PASS]  [string equal [[$net getType] getName] "ModScalarNet"] 
  ASSERT [PASS]  [string equal [[$net  getSigType] getName] "signal"] 
  ASSERT [PASS]  ![$net  isGlobal] 
  ASSERT [PASS]  [string equal [$term  getModule] $module] 
  ASSERT [PASS]  [string equal [[$term getType] getName] "ModScalarTerm"] 
  ASSERT [PASS]  [[$term  getTermType] typeEnum]  == $ioDir 
  ASSERT [PASS]  [string equal [$term  getNet] $net] 
Term 'A0' created attached to Net 'A0'
  ASSERT [PASS]  [$collTermsOnNet getCount]  == 1 
  ASSERT [PASS]  [string equal $gotTerm $term] 
  ASSERT [PASS]  [ $net isValid] 
  ASSERT [PASS]  [string equal [$net getModule] $module] 
  ASSERT [PASS]  [string equal [$net getName]   $netName] 
  ASSERT [PASS]  [string equal [[$net getType] getName] "ModScalarNet"] 
  ASSERT [PASS]  [string equal [[$net getSigType] getName] "signal"] 
  ASSERT [PASS]  ![ $net isGlobal] 
  ASSERT [PASS]  ![ $net isImplicit] 
  ASSERT [PASS]  [ $net isEmpty] 
  ASSERT [PASS]  [[$net getEquivalentNets] isEmpty] 
  ASSERT [PASS]  [[$net getInstTerms] isEmpty] 
  ASSERT [PASS]  [[$net getTerms] isEmpty] 
Created ModScalarNet 'B0'
  ASSERT [PASS]  [string equal [$net  getModule] $module] 
  ASSERT [PASS]  [string equal [[$net getType] getName] "ModScalarNet"] 
  ASSERT [PASS]  [string equal [[$net  getSigType] getName] "signal"] 
  ASSERT [PASS]  ![$net  isGlobal] 
  ASSERT [PASS]  [string equal [$term  getModule] $module] 
  ASSERT [PASS]  [string equal [[$term getType] getName] "ModScalarTerm"] 
  ASSERT [PASS]  [[$term  getTermType] typeEnum]  == $ioDir 
  ASSERT [PASS]  [string equal [$term  getNet] $net] 
Term 'B0' created attached to Net 'B0'
  ASSERT [PASS]  [$collTermsOnNet getCount]  == 1 
  ASSERT [PASS]  [string equal $gotTerm $term] 
  ASSERT [PASS]  [ $net isValid] 
  ASSERT [PASS]  [string equal [$net getModule] $module] 
  ASSERT [PASS]  [string equal [$net getName]   $netName] 
  ASSERT [PASS]  [string equal [[$net getType] getName] "ModScalarNet"] 
  ASSERT [PASS]  [string equal [[$net getSigType] getName] "signal"] 
  ASSERT [PASS]  ![ $net isGlobal] 
  ASSERT [PASS]  ![ $net isImplicit] 
  ASSERT [PASS]  [ $net isEmpty] 
  ASSERT [PASS]  [[$net getEquivalentNets] isEmpty] 
  ASSERT [PASS]  [[$net getInstTerms] isEmpty] 
  ASSERT [PASS]  [[$net getTerms] isEmpty] 
Created ModScalarNet 'S0'
  ASSERT [PASS]  [string equal [$net  getModule] $module] 
  ASSERT [PASS]  [string equal [[$net getType] getName] "ModScalarNet"] 
  ASSERT [PASS]  [string equal [[$net  getSigType] getName] "signal"] 
  ASSERT [PASS]  ![$net  isGlobal] 
  ASSERT [PASS]  [string equal [$term  getModule] $module] 
  ASSERT [PASS]  [string equal [[$term getType] getName] "ModScalarTerm"] 
  ASSERT [PASS]  [[$term  getTermType] typeEnum]  == $ioDir 
  ASSERT [PASS]  [string equal [$term  getNet] $net] 
Term 'S0' created attached to Net 'S0'
  ASSERT [PASS]  [$collTermsOnNet getCount]  == 1 
  ASSERT [PASS]  [string equal $gotTerm $term] 
  ASSERT [PASS]  [ $net isValid] 
  ASSERT [PASS]  [string equal [$net getModule] $module] 
  ASSERT [PASS]  [string equal [$net getName]   $netName] 
  ASSERT [PASS]  [string equal [[$net getType] getName] "ModScalarNet"] 
  ASSERT [PASS]  [string equal [[$net getSigType] getName] "signal"] 
  ASSERT [PASS]  ![ $net isGlobal] 
  ASSERT [PASS]  ![ $net isImplicit] 
  ASSERT [PASS]  [ $net isEmpty] 
  ASSERT [PASS]  [[$net getEquivalentNets] isEmpty] 
  ASSERT [PASS]  [[$net getInstTerms] isEmpty] 
  ASSERT [PASS]  [[$net getTerms] isEmpty] 
Created ModScalarNet 'A1'
  ASSERT [PASS]  [string equal [$net  getModule] $module] 
  ASSERT [PASS]  [string equal [[$net getType] getName] "ModScalarNet"] 
  ASSERT [PASS]  [string equal [[$net  getSigType] getName] "signal"] 
  ASSERT [PASS]  ![$net  isGlobal] 
  ASSERT [PASS]  [string equal [$term  getModule] $module] 
  ASSERT [PASS]  [string equal [[$term getType] getName] "ModScalarTerm"] 
  ASSERT [PASS]  [[$term  getTermType] typeEnum]  == $ioDir 
  ASSERT [PASS]  [string equal [$term  getNet] $net] 
Term 'A1' created attached to Net 'A1'
  ASSERT [PASS]  [$collTermsOnNet getCount]  == 1 
  ASSERT [PASS]  [string equal $gotTerm $term] 
  ASSERT [PASS]  [ $net isValid] 
  ASSERT [PASS]  [string equal [$net getModule] $module] 
  ASSERT [PASS]  [string equal [$net getName]   $netName] 
  ASSERT [PASS]  [string equal [[$net getType] getName] "ModScalarNet"] 
  ASSERT [PASS]  [string equal [[$net getSigType] getName] "signal"] 
  ASSERT [PASS]  ![ $net isGlobal] 
  ASSERT [PASS]  ![ $net isImplicit] 
  ASSERT [PASS]  [ $net isEmpty] 
  ASSERT [PASS]  [[$net getEquivalentNets] isEmpty] 
  ASSERT [PASS]  [[$net getInstTerms] isEmpty] 
  ASSERT [PASS]  [[$net getTerms] isEmpty] 
Created ModScalarNet 'B1'
  ASSERT [PASS]  [string equal [$net  getModule] $module] 
  ASSERT [PASS]  [string equal [[$net getType] getName] "ModScalarNet"] 
  ASSERT [PASS]  [string equal [[$net  getSigType] getName] "signal"] 
  ASSERT [PASS]  ![$net  isGlobal] 
  ASSERT [PASS]  [string equal [$term  getModule] $module] 
  ASSERT [PASS]  [string equal [[$term getType] getName] "ModScalarTerm"] 
  ASSERT [PASS]  [[$term  getTermType] typeEnum]  == $ioDir 
  ASSERT [PASS]  [string equal [$term  getNet] $net] 
Term 'B1' created attached to Net 'B1'
  ASSERT [PASS]  [$collTermsOnNet getCount]  == 1 
  ASSERT [PASS]  [string equal $gotTerm $term] 
  ASSERT [PASS]  [ $net isValid] 
  ASSERT [PASS]  [string equal [$net getModule] $module] 
  ASSERT [PASS]  [string equal [$net getName]   $netName] 
  ASSERT [PASS]  [string equal [[$net getType] getName] "ModScalarNet"] 
  ASSERT [PASS]  [string equal [[$net getSigType] getName] "signal"] 
  ASSERT [PASS]  ![ $net isGlobal] 
  ASSERT [PASS]  ![ $net isImplicit] 
  ASSERT [PASS]  [ $net isEmpty] 
  ASSERT [PASS]  [[$net getEquivalentNets] isEmpty] 
  ASSERT [PASS]  [[$net getInstTerms] isEmpty] 
  ASSERT [PASS]  [[$net getTerms] isEmpty] 
Created ModScalarNet 'S1'
  ASSERT [PASS]  [string equal [$net  getModule] $module] 
  ASSERT [PASS]  [string equal [[$net getType] getName] "ModScalarNet"] 
  ASSERT [PASS]  [string equal [[$net  getSigType] getName] "signal"] 
  ASSERT [PASS]  ![$net  isGlobal] 
  ASSERT [PASS]  [string equal [$term  getModule] $module] 
  ASSERT [PASS]  [string equal [[$term getType] getName] "ModScalarTerm"] 
  ASSERT [PASS]  [[$term  getTermType] typeEnum]  == $ioDir 
  ASSERT [PASS]  [string equal [$term  getNet] $net] 
Term 'S1' created attached to Net 'S1'
  ASSERT [PASS]  [$collTermsOnNet getCount]  == 1 
  ASSERT [PASS]  [string equal $gotTerm $term] 
  ASSERT [PASS]  [ $net isValid] 
  ASSERT [PASS]  [string equal [$net getModule] $module] 
  ASSERT [PASS]  [string equal [$net getName]   $netName] 
  ASSERT [PASS]  [string equal [[$net getType] getName] "ModScalarNet"] 
  ASSERT [PASS]  [string equal [[$net getSigType] getName] "signal"] 
  ASSERT [PASS]  ![ $net isGlobal] 
  ASSERT [PASS]  ![ $net isImplicit] 
  ASSERT [PASS]  [ $net isEmpty] 
  ASSERT [PASS]  [[$net getEquivalentNets] isEmpty] 
  ASSERT [PASS]  [[$net getInstTerms] isEmpty] 
  ASSERT [PASS]  [[$net getTerms] isEmpty] 
Created ModScalarNet 'A2'
  ASSERT [PASS]  [string equal [$net  getModule] $module] 
  ASSERT [PASS]  [string equal [[$net getType] getName] "ModScalarNet"] 
  ASSERT [PASS]  [string equal [[$net  getSigType] getName] "signal"] 
  ASSERT [PASS]  ![$net  isGlobal] 
  ASSERT [PASS]  [string equal [$term  getModule] $module] 
  ASSERT [PASS]  [string equal [[$term getType] getName] "ModScalarTerm"] 
  ASSERT [PASS]  [[$term  getTermType] typeEnum]  == $ioDir 
  ASSERT [PASS]  [string equal [$term  getNet] $net] 
Term 'A2' created attached to Net 'A2'
  ASSERT [PASS]  [$collTermsOnNet getCount]  == 1 
  ASSERT [PASS]  [string equal $gotTerm $term] 
  ASSERT [PASS]  [ $net isValid] 
  ASSERT [PASS]  [string equal [$net getModule] $module] 
  ASSERT [PASS]  [string equal [$net getName]   $netName] 
  ASSERT [PASS]  [string equal [[$net getType] getName] "ModScalarNet"] 
  ASSERT [PASS]  [string equal [[$net getSigType] getName] "signal"] 
  ASSERT [PASS]  ![ $net isGlobal] 
  ASSERT [PASS]  ![ $net isImplicit] 
  ASSERT [PASS]  [ $net isEmpty] 
  ASSERT [PASS]  [[$net getEquivalentNets] isEmpty] 
  ASSERT [PASS]  [[$net getInstTerms] isEmpty] 
  ASSERT [PASS]  [[$net getTerms] isEmpty] 
Created ModScalarNet 'B2'
  ASSERT [PASS]  [string equal [$net  getModule] $module] 
  ASSERT [PASS]  [string equal [[$net getType] getName] "ModScalarNet"] 
  ASSERT [PASS]  [string equal [[$net  getSigType] getName] "signal"] 
  ASSERT [PASS]  ![$net  isGlobal] 
  ASSERT [PASS]  [string equal [$term  getModule] $module] 
  ASSERT [PASS]  [string equal [[$term getType] getName] "ModScalarTerm"] 
  ASSERT [PASS]  [[$term  getTermType] typeEnum]  == $ioDir 
  ASSERT [PASS]  [string equal [$term  getNet] $net] 
Term 'B2' created attached to Net 'B2'
  ASSERT [PASS]  [$collTermsOnNet getCount]  == 1 
  ASSERT [PASS]  [string equal $gotTerm $term] 
  ASSERT [PASS]  [ $net isValid] 
  ASSERT [PASS]  [string equal [$net getModule] $module] 
  ASSERT [PASS]  [string equal [$net getName]   $netName] 
  ASSERT [PASS]  [string equal [[$net getType] getName] "ModScalarNet"] 
  ASSERT [PASS]  [string equal [[$net getSigType] getName] "signal"] 
  ASSERT [PASS]  ![ $net isGlobal] 
  ASSERT [PASS]  ![ $net isImplicit] 
  ASSERT [PASS]  [ $net isEmpty] 
  ASSERT [PASS]  [[$net getEquivalentNets] isEmpty] 
  ASSERT [PASS]  [[$net getInstTerms] isEmpty] 
  ASSERT [PASS]  [[$net getTerms] isEmpty] 
Created ModScalarNet 'S2'
  ASSERT [PASS]  [string equal [$net  getModule] $module] 
  ASSERT [PASS]  [string equal [[$net getType] getName] "ModScalarNet"] 
  ASSERT [PASS]  [string equal [[$net  getSigType] getName] "signal"] 
  ASSERT [PASS]  ![$net  isGlobal] 
  ASSERT [PASS]  [string equal [$term  getModule] $module] 
  ASSERT [PASS]  [string equal [[$term getType] getName] "ModScalarTerm"] 
  ASSERT [PASS]  [[$term  getTermType] typeEnum]  == $ioDir 
  ASSERT [PASS]  [string equal [$term  getNet] $net] 
Term 'S2' created attached to Net 'S2'
  ASSERT [PASS]  [$collTermsOnNet getCount]  == 1 
  ASSERT [PASS]  [string equal $gotTerm $term] 
  ASSERT [PASS]  [ $net isValid] 
  ASSERT [PASS]  [string equal [$net getModule] $module] 
  ASSERT [PASS]  [string equal [$net getName]   $netName] 
  ASSERT [PASS]  [string equal [[$net getType] getName] "ModScalarNet"] 
  ASSERT [PASS]  [string equal [[$net getSigType] getName] "signal"] 
  ASSERT [PASS]  ![ $net isGlobal] 
  ASSERT [PASS]  ![ $net isImplicit] 
  ASSERT [PASS]  [ $net isEmpty] 
  ASSERT [PASS]  [[$net getEquivalentNets] isEmpty] 
  ASSERT [PASS]  [[$net getInstTerms] isEmpty] 
  ASSERT [PASS]  [[$net getTerms] isEmpty] 
Created ModScalarNet 'A3'
  ASSERT [PASS]  [string equal [$net  getModule] $module] 
  ASSERT [PASS]  [string equal [[$net getType] getName] "ModScalarNet"] 
  ASSERT [PASS]  [string equal [[$net  getSigType] getName] "signal"] 
  ASSERT [PASS]  ![$net  isGlobal] 
  ASSERT [PASS]  [string equal [$term  getModule] $module] 
  ASSERT [PASS]  [string equal [[$term getType] getName] "ModScalarTerm"] 
  ASSERT [PASS]  [[$term  getTermType] typeEnum]  == $ioDir 
  ASSERT [PASS]  [string equal [$term  getNet] $net] 
Term 'A3' created attached to Net 'A3'
  ASSERT [PASS]  [$collTermsOnNet getCount]  == 1 
  ASSERT [PASS]  [string equal $gotTerm $term] 
  ASSERT [PASS]  [ $net isValid] 
  ASSERT [PASS]  [string equal [$net getModule] $module] 
  ASSERT [PASS]  [string equal [$net getName]   $netName] 
  ASSERT [PASS]  [string equal [[$net getType] getName] "ModScalarNet"] 
  ASSERT [PASS]  [string equal [[$net getSigType] getName] "signal"] 
  ASSERT [PASS]  ![ $net isGlobal] 
  ASSERT [PASS]  ![ $net isImplicit] 
  ASSERT [PASS]  [ $net isEmpty] 
  ASSERT [PASS]  [[$net getEquivalentNets] isEmpty] 
  ASSERT [PASS]  [[$net getInstTerms] isEmpty] 
  ASSERT [PASS]  [[$net getTerms] isEmpty] 
Created ModScalarNet 'B3'
  ASSERT [PASS]  [string equal [$net  getModule] $module] 
  ASSERT [PASS]  [string equal [[$net getType] getName] "ModScalarNet"] 
  ASSERT [PASS]  [string equal [[$net  getSigType] getName] "signal"] 
  ASSERT [PASS]  ![$net  isGlobal] 
  ASSERT [PASS]  [string equal [$term  getModule] $module] 
  ASSERT [PASS]  [string equal [[$term getType] getName] "ModScalarTerm"] 
  ASSERT [PASS]  [[$term  getTermType] typeEnum]  == $ioDir 
  ASSERT [PASS]  [string equal [$term  getNet] $net] 
Term 'B3' created attached to Net 'B3'
  ASSERT [PASS]  [$collTermsOnNet getCount]  == 1 
  ASSERT [PASS]  [string equal $gotTerm $term] 
  ASSERT [PASS]  [ $net isValid] 
  ASSERT [PASS]  [string equal [$net getModule] $module] 
  ASSERT [PASS]  [string equal [$net getName]   $netName] 
  ASSERT [PASS]  [string equal [[$net getType] getName] "ModScalarNet"] 
  ASSERT [PASS]  [string equal [[$net getSigType] getName] "signal"] 
  ASSERT [PASS]  ![ $net isGlobal] 
  ASSERT [PASS]  ![ $net isImplicit] 
  ASSERT [PASS]  [ $net isEmpty] 
  ASSERT [PASS]  [[$net getEquivalentNets] isEmpty] 
  ASSERT [PASS]  [[$net getInstTerms] isEmpty] 
  ASSERT [PASS]  [[$net getTerms] isEmpty] 
Created ModScalarNet 'S3'
  ASSERT [PASS]  [string equal [$net  getModule] $module] 
  ASSERT [PASS]  [string equal [[$net getType] getName] "ModScalarNet"] 
  ASSERT [PASS]  [string equal [[$net  getSigType] getName] "signal"] 
  ASSERT [PASS]  ![$net  isGlobal] 
  ASSERT [PASS]  [string equal [$term  getModule] $module] 
  ASSERT [PASS]  [string equal [[$term getType] getName] "ModScalarTerm"] 
  ASSERT [PASS]  [[$term  getTermType] typeEnum]  == $ioDir 
  ASSERT [PASS]  [string equal [$term  getNet] $net] 
Term 'S3' created attached to Net 'S3'
  ASSERT [PASS]  [$collTermsOnNet getCount]  == 1 
  ASSERT [PASS]  [string equal $gotTerm $term] 
  ASSERT [PASS]  [ $net isValid] 
  ASSERT [PASS]  [string equal [$net getModule] $module] 
  ASSERT [PASS]  [string equal [$net getName]   $netName] 
  ASSERT [PASS]  [string equal [[$net getType] getName] "ModScalarNet"] 
  ASSERT [PASS]  [string equal [[$net getSigType] getName] "signal"] 
  ASSERT [PASS]  ![ $net isGlobal] 
  ASSERT [PASS]  ![ $net isImplicit] 
  ASSERT [PASS]  [ $net isEmpty] 
  ASSERT [PASS]  [[$net getEquivalentNets] isEmpty] 
  ASSERT [PASS]  [[$net getInstTerms] isEmpty] 
  ASSERT [PASS]  [[$net getTerms] isEmpty] 
Created ModScalarNet 'Ci'
  ASSERT [PASS]  [string equal [$net  getModule] $module] 
  ASSERT [PASS]  [string equal [[$net getType] getName] "ModScalarNet"] 
  ASSERT [PASS]  [string equal [[$net  getSigType] getName] "signal"] 
  ASSERT [PASS]  ![$net  isGlobal] 
  ASSERT [PASS]  [string equal [$term  getModule] $module] 
  ASSERT [PASS]  [string equal [[$term getType] getName] "ModScalarTerm"] 
  ASSERT [PASS]  [[$term  getTermType] typeEnum]  == $ioDir 
  ASSERT [PASS]  [string equal [$term  getNet] $net] 
Term 'Ci' created attached to Net 'Ci'
  ASSERT [PASS]  [$collTermsOnNet getCount]  == 1 
  ASSERT [PASS]  [string equal $gotTerm $term] 
  ASSERT [PASS]  [ $net isValid] 
  ASSERT [PASS]  [string equal [$net getModule] $module] 
  ASSERT [PASS]  [string equal [$net getName]   $netName] 
  ASSERT [PASS]  [string equal [[$net getType] getName] "ModScalarNet"] 
  ASSERT [PASS]  [string equal [[$net getSigType] getName] "signal"] 
  ASSERT [PASS]  ![ $net isGlobal] 
  ASSERT [PASS]  ![ $net isImplicit] 
  ASSERT [PASS]  [ $net isEmpty] 
  ASSERT [PASS]  [[$net getEquivalentNets] isEmpty] 
  ASSERT [PASS]  [[$net getInstTerms] isEmpty] 
  ASSERT [PASS]  [[$net getTerms] isEmpty] 
Created ModScalarNet 'Co'
  ASSERT [PASS]  [string equal [$net  getModule] $module] 
  ASSERT [PASS]  [string equal [[$net getType] getName] "ModScalarNet"] 
  ASSERT [PASS]  [string equal [[$net  getSigType] getName] "signal"] 
  ASSERT [PASS]  ![$net  isGlobal] 
  ASSERT [PASS]  [string equal [$term  getModule] $module] 
  ASSERT [PASS]  [string equal [[$term getType] getName] "ModScalarTerm"] 
  ASSERT [PASS]  [[$term  getTermType] typeEnum]  == $ioDir 
  ASSERT [PASS]  [string equal [$term  getNet] $net] 
Term 'Co' created attached to Net 'Co'
  ASSERT [PASS]  [$collTermsOnNet getCount]  == 1 
  ASSERT [PASS]  [string equal $gotTerm $term] 
  ASSERT [PASS]  [ $net isValid] 
  ASSERT [PASS]  [string equal [$net getModule] $module] 
  ASSERT [PASS]  [string equal [$net getName]   $netName] 
  ASSERT [PASS]  [string equal [[$net getType] getName] "ModScalarNet"] 
  ASSERT [PASS]  [string equal [[$net getSigType] getName] "signal"] 
  ASSERT [PASS]  ![ $net isGlobal] 
  ASSERT [PASS]  ![ $net isImplicit] 
  ASSERT [PASS]  [ $net isEmpty] 
  ASSERT [PASS]  [[$net getEquivalentNets] isEmpty] 
  ASSERT [PASS]  [[$net getInstTerms] isEmpty] 
  ASSERT [PASS]  [[$net getTerms] isEmpty] 
Created ModScalarNet 'C01'
  ASSERT [PASS]  [ $net isValid] 
  ASSERT [PASS]  [string equal [$net getModule] $module] 
  ASSERT [PASS]  [string equal [$net getName]   $netName] 
  ASSERT [PASS]  [string equal [[$net getType] getName] "ModScalarNet"] 
  ASSERT [PASS]  [string equal [[$net getSigType] getName] "signal"] 
  ASSERT [PASS]  ![ $net isGlobal] 
  ASSERT [PASS]  ![ $net isImplicit] 
  ASSERT [PASS]  [ $net isEmpty] 
  ASSERT [PASS]  [[$net getEquivalentNets] isEmpty] 
  ASSERT [PASS]  [[$net getInstTerms] isEmpty] 
  ASSERT [PASS]  [[$net getTerms] isEmpty] 
Created ModScalarNet 'C12'
Created InstTerm of "A" on Inst "Fa0", attached to net "A0"
  ASSERT [PASS]  [$instTerm isValid] 
Created InstTerm of "B" on Inst "Fa0", attached to net "B0"
  ASSERT [PASS]  [$instTerm isValid] 
Created InstTerm of "S" on Inst "Fa0", attached to net "S0"
  ASSERT [PASS]  [$instTerm isValid] 
Created InstTerm of "Ci" on Inst "Fa0", attached to net "Ci"
  ASSERT [PASS]  [$instTerm isValid] 
Created InstTerm of "Co" on Inst "Fa0", attached to net "C01"
  ASSERT [PASS]  [$instTerm isValid] 
Created InstTerm of "A" on Inst "Fa1", attached to net "A1"
  ASSERT [PASS]  [$instTerm isValid] 
Created InstTerm of "B" on Inst "Fa1", attached to net "B1"
  ASSERT [PASS]  [$instTerm isValid] 
Created InstTerm of "S" on Inst "Fa1", attached to net "S1"
  ASSERT [PASS]  [$instTerm isValid] 
Created InstTerm of "Ci" on Inst "Fa1", attached to net "C01"
  ASSERT [PASS]  [$instTerm isValid] 
Created InstTerm of "Co" on Inst "Fa1", attached to net "C12"
  ASSERT [PASS]  [$instTerm isValid] 
Created InstTerm of "A" on Inst "Fa2", attached to net "A2"
  ASSERT [PASS]  [$instTerm isValid] 
Created InstTerm of "B" on Inst "Fa2", attached to net "B2"
  ASSERT [PASS]  [$instTerm isValid] 
Created InstTerm of "S" on Inst "Fa2", attached to net "S2"
  ASSERT [PASS]  [$instTerm isValid] 
Created InstTerm of "Ci" on Inst "Fa2", attached to net "C12"
  ASSERT [PASS]  [$instTerm isValid] 
Created InstTerm of "Co" on Inst "Fa2", attached to net "Co"
  ASSERT [PASS]  [$instTerm isValid] 

Currently open Designs:

______________________________  Design"Lib3bitAdder|Adder3bit|netlist"

==================== BLOCK DOMAIN ====================

[1]BLOCK
 Block 
  [3]INSTHEADERs
   InstHeader  BOUND=> Design"Lib|Xor|netlist"
    [6]INSTs
     ScalarInst "Fa2/Ha1/Xor1" R0 (0,0)
      [3]INSTTERMs
       InstTerm " A" EX BITS=1 BOUND CONN2"A2"
       InstTerm " B" EX BITS=1 BOUND CONN2"B2"
       InstTerm " Y" EX BITS=1 BOUND CONN2"Fa2/H1s"
     ScalarInst "Fa2/Ha2/Xor1" R0 (0,0)
      [3]INSTTERMs
       InstTerm " Y" EX BITS=1 BOUND CONN2"S2"
       InstTerm " B" EX BITS=1 BOUND CONN2"C12"
       InstTerm " A" EX BITS=1 BOUND CONN2"Fa2/H1s"
     ScalarInst "Fa1/Ha1/Xor1" R0 (0,0)
      [3]INSTTERMs
       InstTerm " A" EX BITS=1 BOUND CONN2"A1"
       InstTerm " B" EX BITS=1 BOUND CONN2"B1"
       InstTerm " Y" EX BITS=1 BOUND CONN2"Fa1/H1s"
     ScalarInst "Fa1/Ha2/Xor1" R0 (0,0)
      [3]INSTTERMs
       InstTerm " Y" EX BITS=1 BOUND CONN2"S1"
       InstTerm " B" EX BITS=1 BOUND CONN2"C01"
       InstTerm " A" EX BITS=1 BOUND CONN2"Fa1/H1s"
     ScalarInst "Fa0/Ha2/Xor1" R0 (0,0)
      [3]INSTTERMs
       InstTerm " A" EX BITS=1 BOUND CONN2"Fa0/H1s"
       InstTerm " B" EX BITS=1 BOUND CONN2"Ci"
       InstTerm " Y" EX BITS=1 BOUND CONN2"S0"
     ScalarInst "Fa0/Ha1/Xor1" R0 (0,0)
      [3]INSTTERMs
       InstTerm " Y" EX BITS=1 BOUND CONN2"Fa0/H1s"
       InstTerm " B" EX BITS=1 BOUND CONN2"B0"
       InstTerm " A" EX BITS=1 BOUND CONN2"A0"
   InstHeader  BOUND=> Design"Lib|And|netlist"
    [6]INSTs
     ScalarInst "Fa2/Ha1/And1" R0 (0,0)
      [3]INSTTERMs
       InstTerm " A" EX BITS=1 BOUND CONN2"A2"
       InstTerm " B" EX BITS=1 BOUND CONN2"B2"
       InstTerm " Y" EX BITS=1 BOUND CONN2"Fa2/H1c"
     ScalarInst "Fa2/Ha2/And1" R0 (0,0)
      [3]INSTTERMs
       InstTerm " Y" EX BITS=1 BOUND CONN2"Fa2/H2c"
       InstTerm " B" EX BITS=1 BOUND CONN2"C12"
       InstTerm " A" EX BITS=1 BOUND CONN2"Fa2/H1s"
     ScalarInst "Fa1/Ha1/And1" R0 (0,0)
      [3]INSTTERMs
       InstTerm " A" EX BITS=1 BOUND CONN2"A1"
       InstTerm " B" EX BITS=1 BOUND CONN2"B1"
       InstTerm " Y" EX BITS=1 BOUND CONN2"Fa1/H1c"
     ScalarInst "Fa1/Ha2/And1" R0 (0,0)
      [3]INSTTERMs
       InstTerm " Y" EX BITS=1 BOUND CONN2"Fa1/H2c"
       InstTerm " B" EX BITS=1 BOUND CONN2"C01"
       InstTerm " A" EX BITS=1 BOUND CONN2"Fa1/H1s"
     ScalarInst "Fa0/Ha2/And1" R0 (0,0)
      [3]INSTTERMs
       InstTerm " A" EX BITS=1 BOUND CONN2"Fa0/H1s"
       InstTerm " B" EX BITS=1 BOUND CONN2"Ci"
       InstTerm " Y" EX BITS=1 BOUND CONN2"Fa0/H2c"
     ScalarInst "Fa0/Ha1/And1" R0 (0,0)
      [3]INSTTERMs
       InstTerm " Y" EX BITS=1 BOUND CONN2"Fa0/H1c"
       InstTerm " B" EX BITS=1 BOUND CONN2"B0"
       InstTerm " A" EX BITS=1 BOUND CONN2"A0"
   InstHeader  BOUND=> Design"Lib|Or|netlist"
    [3]INSTs
     ScalarInst "Fa2/Or1" R0 (0,0)
      [3]INSTTERMs
       InstTerm " A" EX BITS=1 BOUND CONN2"Fa2/H1c"
       InstTerm " B" EX BITS=1 BOUND CONN2"Fa2/H2c"
       InstTerm " Y" EX BITS=1 BOUND CONN2"Co"
     ScalarInst "Fa1/Or1" R0 (0,0)
      [3]INSTTERMs
       InstTerm " A" EX BITS=1 BOUND CONN2"Fa1/H1c"
       InstTerm " B" EX BITS=1 BOUND CONN2"Fa1/H2c"
       InstTerm " Y" EX BITS=1 BOUND CONN2"C12"
     ScalarInst "Fa0/Or1" R0 (0,0)
      [3]INSTTERMs
       InstTerm " Y" EX BITS=1 BOUND CONN2"C01"
       InstTerm " B" EX BITS=1 BOUND CONN2"Fa0/H2c"
       InstTerm " A" EX BITS=1 BOUND CONN2"Fa0/H1c"
  [25]NETs
   ScalarNet "Fa0/H1c" EXBITS=1 ISPREF
    CONNECTS InstTerms: "Fa0/Or1|A" "Fa0/Ha1/And1|Y"
   ScalarNet "Fa0/H1s" EXBITS=1 ISPREF
    CONNECTS InstTerms: "Fa0/Ha1/Xor1|Y" "Fa0/Ha2/Xor1|A" "Fa0/Ha2/And1|A"
   ScalarNet "Fa0/H2c" EXBITS=1 ISPREF
    CONNECTS InstTerms: "Fa0/Or1|B" "Fa0/Ha2/And1|Y"
   ScalarNet "Fa1/H2c" EXBITS=1 ISPREF
    CONNECTS InstTerms: "Fa1/Or1|B" "Fa1/Ha2/And1|Y"
   ScalarNet "Fa1/H1s" EXBITS=1 ISPREF
    CONNECTS InstTerms: "Fa1/Ha2/And1|A" "Fa1/Ha2/Xor1|A" "Fa1/Ha1/Xor1|Y"
   ScalarNet "Fa1/H1c" EXBITS=1 ISPREF
    CONNECTS InstTerms: "Fa1/Or1|A" "Fa1/Ha1/And1|Y"
   ScalarNet "Fa2/H2c" EXBITS=1 ISPREF
    CONNECTS InstTerms: "Fa2/Or1|B" "Fa2/Ha2/And1|Y"
   ScalarNet "Fa2/H1s" EXBITS=1 ISPREF
    CONNECTS InstTerms: "Fa2/Ha2/And1|A" "Fa2/Ha2/Xor1|A" "Fa2/Ha1/Xor1|Y"
   ScalarNet "Fa2/H1c" EXBITS=1 ISPREF
    CONNECTS InstTerms: "Fa2/Or1|A" "Fa2/Ha1/And1|Y"
   ScalarNet "A0" EXBITS=1 ISPREF
    CONNECTS Terms: "A0"
    CONNECTS InstTerms: "Fa0/Ha1/And1|A" "Fa0/Ha1/Xor1|A"
   ScalarNet "B0" EXBITS=1 ISPREF
    CONNECTS Terms: "B0"
    CONNECTS InstTerms: "Fa0/Ha1/And1|B" "Fa0/Ha1/Xor1|B"
   ScalarNet "S0" EXBITS=1 ISPREF
    CONNECTS Terms: "S0"
    CONNECTS InstTerms: "Fa0/Ha2/Xor1|Y"
   ScalarNet "A1" EXBITS=1 ISPREF
    CONNECTS Terms: "A1"
    CONNECTS InstTerms: "Fa1/Ha1/Xor1|A" "Fa1/Ha1/And1|A"
   ScalarNet "B1" EXBITS=1 ISPREF
    CONNECTS Terms: "B1"
    CONNECTS InstTerms: "Fa1/Ha1/Xor1|B" "Fa1/Ha1/And1|B"
   ScalarNet "S1" EXBITS=1 ISPREF
    CONNECTS Terms: "S1"
    CONNECTS InstTerms: "Fa1/Ha2/Xor1|Y"
   ScalarNet "A2" EXBITS=1 ISPREF
    CONNECTS Terms: "A2"
    CONNECTS InstTerms: "Fa2/Ha1/Xor1|A" "Fa2/Ha1/And1|A"
   ScalarNet "B2" EXBITS=1 ISPREF
    CONNECTS Terms: "B2"
    CONNECTS InstTerms: "Fa2/Ha1/Xor1|B" "Fa2/Ha1/And1|B"
   ScalarNet "S2" EXBITS=1 ISPREF
    CONNECTS Terms: "S2"
    CONNECTS InstTerms: "Fa2/Ha2/Xor1|Y"
   ScalarNet "A3" EXBITS=1 ISPREF
    CONNECTS Terms: "A3"
   ScalarNet "B3" EXBITS=1 ISPREF
    CONNECTS Terms: "B3"
   ScalarNet "S3" EXBITS=1 ISPREF
    CONNECTS Terms: "S3"
   ScalarNet "Ci" EXBITS=1 ISPREF
    CONNECTS Terms: "Ci"
    CONNECTS InstTerms: "Fa0/Ha2/Xor1|B" "Fa0/Ha2/And1|B"
   ScalarNet "Co" EXBITS=1 ISPREF
    CONNECTS Terms: "Co"
    CONNECTS InstTerms: "Fa2/Or1|Y"
   ScalarNet "C01" EXBITS=1 ISPREF
    CONNECTS InstTerms: "Fa0/Or1|Y" "Fa1/Ha2/And1|B" "Fa1/Ha2/Xor1|B"
   ScalarNet "C12" EXBITS=1 ISPREF
    CONNECTS InstTerms: "Fa1/Or1|Y" "Fa2/Ha2/And1|B" "Fa2/Ha2/Xor1|B"
  [14]TERMs
   ScalarTerm "A0" EXBITS=1 input  CONN2"A0" PINCON=default
   ScalarTerm "B0" EXBITS=1 input  CONN2"B0" PINCON=default
   ScalarTerm "S0" EXBITS=1 output CONN2"S0" PINCON=default
   ScalarTerm "A1" EXBITS=1 input  CONN2"A1" PINCON=default
   ScalarTerm "B1" EXBITS=1 input  CONN2"B1" PINCON=default
   ScalarTerm "S1" EXBITS=1 output CONN2"S1" PINCON=default
   ScalarTerm "A2" EXBITS=1 input  CONN2"A2" PINCON=default
   ScalarTerm "B2" EXBITS=1 input  CONN2"B2" PINCON=default
   ScalarTerm "S2" EXBITS=1 output CONN2"S2" PINCON=default
   ScalarTerm "A3" EXBITS=1 input  CONN2"A3" PINCON=default
   ScalarTerm "B3" EXBITS=1 input  CONN2"B3" PINCON=default
   ScalarTerm "S3" EXBITS=1 output CONN2"S3" PINCON=default
   ScalarTerm "Ci" EXBITS=1 input  CONN2"Ci" PINCON=default
   ScalarTerm "Co" EXBITS=1 output CONN2"Co" PINCON=default

==================== MODULE DOMAIN ====================

[3]MODINSTHEADERs
 ModInstHeader "Lib|Xor|netlist" BOUND=> Design"Lib|Xor|netlist"
  [1]MODDESIGNINST
   ModScalarInst "HalfAdderMod"|"Xor1" BOUND "Xor"[TOP]
 ModInstHeader "Lib|And|netlist" BOUND=> Design"Lib|And|netlist"
  [1]MODDESIGNINST
   ModScalarInst "HalfAdderMod"|"And1" BOUND "And"[TOP]
 ModInstHeader "Lib|Or|netlist" BOUND=> Design"Lib|Or|netlist"
  [1]MODDESIGNINST
   ModScalarInst "FullAdderMod"|"Or1" BOUND "Or"[TOP]

[3]MODULEs
 Module "Adder3bitMod" TOP
  [1]MODMODULEINSTHEADER
   ModModuleInstHeader "FullAdderMod" BOUND=> Module"FullAdderMod"
    [3]MODMODULEINSTs
     ModModuleScalarInst "Fa2"
      [5]INSTTERMs
       ModInstTerm " Co" EX BITS=1 BOUND CONN2"Co"
       ModInstTerm " Ci" EX BITS=1 BOUND CONN2"C12"
       ModInstTerm " S" EX BITS=1 BOUND CONN2"S2"
       ModInstTerm " B" EX BITS=1 BOUND CONN2"B2"
       ModInstTerm " A" EX BITS=1 BOUND CONN2"A2"
     ModModuleScalarInst "Fa1"
      [5]INSTTERMs
       ModInstTerm " Co" EX BITS=1 BOUND CONN2"C12"
       ModInstTerm " Ci" EX BITS=1 BOUND CONN2"C01"
       ModInstTerm " S" EX BITS=1 BOUND CONN2"S1"
       ModInstTerm " B" EX BITS=1 BOUND CONN2"B1"
       ModInstTerm " A" EX BITS=1 BOUND CONN2"A1"
     ModModuleScalarInst "Fa0"
      [5]INSTTERMs
       ModInstTerm " Co" EX BITS=1 BOUND CONN2"C01"
       ModInstTerm " Ci" EX BITS=1 BOUND CONN2"Ci"
       ModInstTerm " S" EX BITS=1 BOUND CONN2"S0"
       ModInstTerm " B" EX BITS=1 BOUND CONN2"B0"
       ModInstTerm " A" EX BITS=1 BOUND CONN2"A0"
  [16]MODNETs
   ModScalarNet "C12" EXBITS=1
    CONNECTS ModInstTerms:"Fa2|Ci""Fa1|Co"
   ModScalarNet "C01" EXBITS=1
    CONNECTS ModInstTerms:"Fa1|Ci""Fa0|Co"
   ModScalarNet "Co" EXBITS=1
    CONNECTS ModTerms: "Co"
    CONNECTS ModInstTerms:"Fa2|Co"
   ModScalarNet "Ci" EXBITS=1
    CONNECTS ModTerms: "Ci"
    CONNECTS ModInstTerms:"Fa0|Ci"
   ModScalarNet "S3" EXBITS=1
    CONNECTS ModTerms: "S3"
   ModScalarNet "B3" EXBITS=1
    CONNECTS ModTerms: "B3"
   ModScalarNet "A3" EXBITS=1
    CONNECTS ModTerms: "A3"
   ModScalarNet "S2" EXBITS=1
    CONNECTS ModTerms: "S2"
    CONNECTS ModInstTerms:"Fa2|S"
   ModScalarNet "B2" EXBITS=1
    CONNECTS ModTerms: "B2"
    CONNECTS ModInstTerms:"Fa2|B"
   ModScalarNet "A2" EXBITS=1
    CONNECTS ModTerms: "A2"
    CONNECTS ModInstTerms:"Fa2|A"
   ModScalarNet "S1" EXBITS=1
    CONNECTS ModTerms: "S1"
    CONNECTS ModInstTerms:"Fa1|S"
   ModScalarNet "B1" EXBITS=1
    CONNECTS ModTerms: "B1"
    CONNECTS ModInstTerms:"Fa1|B"
   ModScalarNet "A1" EXBITS=1
    CONNECTS ModTerms: "A1"
    CONNECTS ModInstTerms:"Fa1|A"
   ModScalarNet "S0" EXBITS=1
    CONNECTS ModTerms: "S0"
    CONNECTS ModInstTerms:"Fa0|S"
   ModScalarNet "B0" EXBITS=1
    CONNECTS ModTerms: "B0"
    CONNECTS ModInstTerms:"Fa0|B"
   ModScalarNet "A0" EXBITS=1
    CONNECTS ModTerms: "A0"
    CONNECTS ModInstTerms:"Fa0|A"
  [14]MODTERMs
   ModScalarTerm "Co" EXBITS=1 output CONN2"Co"
   ModScalarTerm "Ci" EXBITS=1 input  CONN2"Ci"
   ModScalarTerm "S3" EXBITS=1 output CONN2"S3"
   ModScalarTerm "B3" EXBITS=1 input  CONN2"B3"
   ModScalarTerm "A3" EXBITS=1 input  CONN2"A3"
   ModScalarTerm "S2" EXBITS=1 output CONN2"S2"
   ModScalarTerm "B2" EXBITS=1 input  CONN2"B2"
   ModScalarTerm "A2" EXBITS=1 input  CONN2"A2"
   ModScalarTerm "S1" EXBITS=1 output CONN2"S1"
   ModScalarTerm "B1" EXBITS=1 input  CONN2"B1"
   ModScalarTerm "A1" EXBITS=1 input  CONN2"A1"
   ModScalarTerm "S0" EXBITS=1 output CONN2"S0"
   ModScalarTerm "B0" EXBITS=1 input  CONN2"B0"
   ModScalarTerm "A0" EXBITS=1 input  CONN2"A0"
 Module "FullAdderMod"
  [1]MODMODULEINSTHEADER
   ModModuleInstHeader "HalfAdderMod" BOUND=> Module"HalfAdderMod"
    [2]MODMODULEINSTs
     ModModuleScalarInst "Ha2"
      [4]INSTTERMs
       ModInstTerm " S" EX BITS=1 BOUND CONN2"S"
       ModInstTerm " C" EX BITS=1 BOUND CONN2"H2c"
       ModInstTerm " B" EX BITS=1 BOUND CONN2"Ci"
       ModInstTerm " A" EX BITS=1 BOUND CONN2"H1s"
     ModModuleScalarInst "Ha1"
      [4]INSTTERMs
       ModInstTerm " S" EX BITS=1 BOUND CONN2"H1s"
       ModInstTerm " C" EX BITS=1 BOUND CONN2"H1c"
       ModInstTerm " B" EX BITS=1 BOUND CONN2"B"
       ModInstTerm " A" EX BITS=1 BOUND CONN2"A"
  [1]MODDESIGNINST
   ModScalarInst "Or1"
    [3]INSTTERMs
     ModInstTerm " Y" EX BITS=1 BOUND CONN2"Co"
     ModInstTerm " B" EX BITS=1 BOUND CONN2"H2c"
     ModInstTerm " A" EX BITS=1 BOUND CONN2"H1c"
  [8]MODNETs
   ModScalarNet "H2c" EXBITS=1
    CONNECTS ModInstTerms:"Or1|B""Ha2|C"
   ModScalarNet "H1s" EXBITS=1
    CONNECTS ModInstTerms:"Ha2|A""Ha1|S"
   ModScalarNet "H1c" EXBITS=1
    CONNECTS ModInstTerms:"Or1|A""Ha1|C"
   ModScalarNet "S" EXBITS=1
    CONNECTS ModTerms: "S"
    CONNECTS ModInstTerms:"Ha2|S"
   ModScalarNet "Co" EXBITS=1
    CONNECTS ModTerms: "Co"
    CONNECTS ModInstTerms:"Or1|Y"
   ModScalarNet "Ci" EXBITS=1
    CONNECTS ModTerms: "Ci"
    CONNECTS ModInstTerms:"Ha2|B"
   ModScalarNet "B" EXBITS=1
    CONNECTS ModTerms: "B"
    CONNECTS ModInstTerms:"Ha1|B"
   ModScalarNet "A" EXBITS=1
    CONNECTS ModTerms: "A"
    CONNECTS ModInstTerms:"Ha1|A"
  [5]MODTERMs
   ModScalarTerm "S" EXBITS=1 output CONN2"S"
   ModScalarTerm "Co" EXBITS=1 output CONN2"Co"
   ModScalarTerm "Ci" EXBITS=1 input  CONN2"Ci"
   ModScalarTerm "B" EXBITS=1 input  CONN2"B"
   ModScalarTerm "A" EXBITS=1 input  CONN2"A"
 Module "HalfAdderMod"
  [2]MODDESIGNINSTs
   ModScalarInst "And1"
    [3]INSTTERMs
     ModInstTerm " Y" EX BITS=1 BOUND CONN2"C"
     ModInstTerm " B" EX BITS=1 BOUND CONN2"B"
     ModInstTerm " A" EX BITS=1 BOUND CONN2"A"
   ModScalarInst "Xor1"
    [3]INSTTERMs
     ModInstTerm " Y" EX BITS=1 BOUND CONN2"S"
     ModInstTerm " B" EX BITS=1 BOUND CONN2"B"
     ModInstTerm " A" EX BITS=1 BOUND CONN2"A"
  [4]MODNETs
   ModScalarNet "S" EXBITS=1
    CONNECTS ModTerms: "S"
    CONNECTS ModInstTerms:"Xor1|Y"
   ModScalarNet "C" EXBITS=1
    CONNECTS ModTerms: "C"
    CONNECTS ModInstTerms:"And1|Y"
   ModScalarNet "B" EXBITS=1
    CONNECTS ModTerms: "B"
    CONNECTS ModInstTerms:"And1|B""Xor1|B"
   ModScalarNet "A" EXBITS=1
    CONNECTS ModTerms: "A"
    CONNECTS ModInstTerms:"And1|A""Xor1|A"
  [4]MODTERMs
   ModScalarTerm "S" EXBITS=1 output CONN2"S"
   ModScalarTerm "C" EXBITS=1 output CONN2"C"
   ModScalarTerm "B" EXBITS=1 input  CONN2"B"
   ModScalarTerm "A" EXBITS=1 input  CONN2"A"


______________________________  Design"Lib|Or|netlist"

==================== BLOCK DOMAIN ====================

[1]BLOCK
 Block 
  [3]NETs
   ScalarNet "N__0" EXBITS=1 ISPREF
    CONNECTS Terms: "A"
   ScalarNet "N__1" EXBITS=1 ISPREF
    CONNECTS Terms: "B"
   ScalarNet "N__2" EXBITS=1 ISPREF
    CONNECTS Terms: "Y"
  [3]TERMs
   ScalarTerm "A" EXBITS=1 input  CONN2"N__0" PINCON=default
   ScalarTerm "B" EXBITS=1 input  CONN2"N__1" PINCON=default
   ScalarTerm "Y" EXBITS=1 output CONN2"N__2" PINCON=default

==================== MODULE DOMAIN ====================

[0]MODINSTHEADERs

[1]MODULE
 Module "Or" TOP
  [3]MODNETs
   ModScalarNet "N__0" EXBITS=1
    CONNECTS ModTerms: "A"
   ModScalarNet "N__1" EXBITS=1
    CONNECTS ModTerms: "B"
   ModScalarNet "N__2" EXBITS=1
    CONNECTS ModTerms: "Y"
  [3]MODTERMs
   ModScalarTerm "A" EXBITS=1 input  CONN2"N__0"
   ModScalarTerm "B" EXBITS=1 input  CONN2"N__1"
   ModScalarTerm "Y" EXBITS=1 output CONN2"N__2"


______________________________  Design"Lib|Xor|netlist"

==================== BLOCK DOMAIN ====================

[1]BLOCK
 Block 
  [3]NETs
   ScalarNet "N__0" EXBITS=1 ISPREF
    CONNECTS Terms: "A"
   ScalarNet "N__1" EXBITS=1 ISPREF
    CONNECTS Terms: "B"
   ScalarNet "N__2" EXBITS=1 ISPREF
    CONNECTS Terms: "Y"
  [3]TERMs
   ScalarTerm "A" EXBITS=1 input  CONN2"N__0" PINCON=default
   ScalarTerm "B" EXBITS=1 input  CONN2"N__1" PINCON=default
   ScalarTerm "Y" EXBITS=1 output CONN2"N__2" PINCON=default

==================== MODULE DOMAIN ====================

[0]MODINSTHEADERs

[1]MODULE
 Module "Xor" TOP
  [3]MODNETs
   ModScalarNet "N__0" EXBITS=1
    CONNECTS ModTerms: "A"
   ModScalarNet "N__1" EXBITS=1
    CONNECTS ModTerms: "B"
   ModScalarNet "N__2" EXBITS=1
    CONNECTS ModTerms: "Y"
  [3]MODTERMs
   ModScalarTerm "A" EXBITS=1 input  CONN2"N__0"
   ModScalarTerm "B" EXBITS=1 input  CONN2"N__1"
   ModScalarTerm "Y" EXBITS=1 output CONN2"N__2"


______________________________  Design"Lib|And|netlist"

==================== BLOCK DOMAIN ====================

[1]BLOCK
 Block 
  [3]NETs
   ScalarNet "N__0" EXBITS=1 ISPREF
    CONNECTS Terms: "A"
   ScalarNet "N__1" EXBITS=1 ISPREF
    CONNECTS Terms: "B"
   ScalarNet "N__2" EXBITS=1 ISPREF
    CONNECTS Terms: "Y"
  [3]TERMs
   ScalarTerm "A" EXBITS=1 input  CONN2"N__0" PINCON=default
   ScalarTerm "B" EXBITS=1 input  CONN2"N__1" PINCON=default
   ScalarTerm "Y" EXBITS=1 output CONN2"N__2" PINCON=default

==================== MODULE DOMAIN ====================

[0]MODINSTHEADERs

[1]MODULE
 Module "And" TOP
  [3]MODNETs
   ModScalarNet "N__0" EXBITS=1
    CONNECTS ModTerms: "A"
   ModScalarNet "N__1" EXBITS=1
    CONNECTS ModTerms: "B"
   ModScalarNet "N__2" EXBITS=1
    CONNECTS ModTerms: "Y"
  [3]MODTERMs
   ModScalarTerm "A" EXBITS=1 input  CONN2"N__0"
   ModScalarTerm "B" EXBITS=1 input  CONN2"N__1"
   ModScalarTerm "Y" EXBITS=1 output CONN2"N__2"



||||||||||||||||||||||||||||||||||||||||||| Detach FullAdderMod |||||||||||||||||||||||||||||||||||||||||||


  ASSERT [PASS]  [$modFA isValid] 

Currently open Designs:

______________________________  Design"Lib3bitAdder|Adder3bit|netlist"

==================== BLOCK DOMAIN ====================

[1]BLOCK
 Block 
  [1]INSTHEADER
   InstHeader  BOUND=> Design"Lib3bitAdder|FAdetach|netlist"
    [3]INSTs
     ScalarInst "Fa0" R0 (0,0)
      [5]INSTTERMs
       InstTerm " Co" EX BITS=1 BOUND CONN2"C01"
       InstTerm " Ci" EX BITS=1 BOUND CONN2"Ci"
       InstTerm " S" EX BITS=1 BOUND CONN2"S0"
       InstTerm " B" EX BITS=1 BOUND CONN2"B0"
       InstTerm " A" EX BITS=1 BOUND CONN2"A0"
     ScalarInst "Fa1" R0 (0,0)
      [5]INSTTERMs
       InstTerm " Co" EX BITS=1 BOUND CONN2"C12"
       InstTerm " Ci" EX BITS=1 BOUND CONN2"C01"
       InstTerm " S" EX BITS=1 BOUND CONN2"S1"
       InstTerm " B" EX BITS=1 BOUND CONN2"B1"
       InstTerm " A" EX BITS=1 BOUND CONN2"A1"
     ScalarInst "Fa2" R0 (0,0)
      [5]INSTTERMs
       InstTerm " Co" EX BITS=1 BOUND CONN2"Co"
       InstTerm " Ci" EX BITS=1 BOUND CONN2"C12"
       InstTerm " S" EX BITS=1 BOUND CONN2"S2"
       InstTerm " B" EX BITS=1 BOUND CONN2"B2"
       InstTerm " A" EX BITS=1 BOUND CONN2"A2"
  [16]NETs
   ScalarNet "A0" EXBITS=1 ISPREF
    CONNECTS Terms: "A0"
    CONNECTS InstTerms: "Fa0|A"
   ScalarNet "B0" EXBITS=1 ISPREF
    CONNECTS Terms: "B0"
    CONNECTS InstTerms: "Fa0|B"
   ScalarNet "S0" EXBITS=1 ISPREF
    CONNECTS Terms: "S0"
    CONNECTS InstTerms: "Fa0|S"
   ScalarNet "A1" EXBITS=1 ISPREF
    CONNECTS Terms: "A1"
    CONNECTS InstTerms: "Fa1|A"
   ScalarNet "B1" EXBITS=1 ISPREF
    CONNECTS Terms: "B1"
    CONNECTS InstTerms: "Fa1|B"
   ScalarNet "S1" EXBITS=1 ISPREF
    CONNECTS Terms: "S1"
    CONNECTS InstTerms: "Fa1|S"
   ScalarNet "A2" EXBITS=1 ISPREF
    CONNECTS Terms: "A2"
    CONNECTS InstTerms: "Fa2|A"
   ScalarNet "B2" EXBITS=1 ISPREF
    CONNECTS Terms: "B2"
    CONNECTS InstTerms: "Fa2|B"
   ScalarNet "S2" EXBITS=1 ISPREF
    CONNECTS Terms: "S2"
    CONNECTS InstTerms: "Fa2|S"
   ScalarNet "A3" EXBITS=1 ISPREF
    CONNECTS Terms: "A3"
   ScalarNet "B3" EXBITS=1 ISPREF
    CONNECTS Terms: "B3"
   ScalarNet "S3" EXBITS=1 ISPREF
    CONNECTS Terms: "S3"
   ScalarNet "Ci" EXBITS=1 ISPREF
    CONNECTS Terms: "Ci"
    CONNECTS InstTerms: "Fa0|Ci"
   ScalarNet "Co" EXBITS=1 ISPREF
    CONNECTS Terms: "Co"
    CONNECTS InstTerms: "Fa2|Co"
   ScalarNet "C01" EXBITS=1 ISPREF
    CONNECTS InstTerms: "Fa1|Ci" "Fa0|Co"
   ScalarNet "C12" EXBITS=1 ISPREF
    CONNECTS InstTerms: "Fa2|Ci" "Fa1|Co"
  [14]TERMs
   ScalarTerm "A0" EXBITS=1 input  CONN2"A0" PINCON=default
   ScalarTerm "B0" EXBITS=1 input  CONN2"B0" PINCON=default
   ScalarTerm "S0" EXBITS=1 output CONN2"S0" PINCON=default
   ScalarTerm "A1" EXBITS=1 input  CONN2"A1" PINCON=default
   ScalarTerm "B1" EXBITS=1 input  CONN2"B1" PINCON=default
   ScalarTerm "S1" EXBITS=1 output CONN2"S1" PINCON=default
   ScalarTerm "A2" EXBITS=1 input  CONN2"A2" PINCON=default
   ScalarTerm "B2" EXBITS=1 input  CONN2"B2" PINCON=default
   ScalarTerm "S2" EXBITS=1 output CONN2"S2" PINCON=default
   ScalarTerm "A3" EXBITS=1 input  CONN2"A3" PINCON=default
   ScalarTerm "B3" EXBITS=1 input  CONN2"B3" PINCON=default
   ScalarTerm "S3" EXBITS=1 output CONN2"S3" PINCON=default
   ScalarTerm "Ci" EXBITS=1 input  CONN2"Ci" PINCON=default
   ScalarTerm "Co" EXBITS=1 output CONN2"Co" PINCON=default

==================== MODULE DOMAIN ====================

[1]MODINSTHEADER
 ModInstHeader "Lib3bitAdder|FAdetach|netlist" BOUND=> Design"Lib3bitAdder|FAdetach|netlist"
  [3]MODDESIGNINSTs
   ModScalarInst "Adder3bitMod"|"Fa0" BOUND "FullAdderMod"[TOP]
   ModScalarInst "Adder3bitMod"|"Fa1" BOUND "FullAdderMod"[TOP]
   ModScalarInst "Adder3bitMod"|"Fa2" BOUND "FullAdderMod"[TOP]

[1]MODULE
 Module "Adder3bitMod" TOP
  [3]MODDESIGNINSTs
   ModScalarInst "Fa2"
    [5]INSTTERMs
     ModInstTerm " Co" EX BITS=1 BOUND CONN2"Co"
     ModInstTerm " Ci" EX BITS=1 BOUND CONN2"C12"
     ModInstTerm " S" EX BITS=1 BOUND CONN2"S2"
     ModInstTerm " B" EX BITS=1 BOUND CONN2"B2"
     ModInstTerm " A" EX BITS=1 BOUND CONN2"A2"
   ModScalarInst "Fa1"
    [5]INSTTERMs
     ModInstTerm " Co" EX BITS=1 BOUND CONN2"C12"
     ModInstTerm " Ci" EX BITS=1 BOUND CONN2"C01"
     ModInstTerm " S" EX BITS=1 BOUND CONN2"S1"
     ModInstTerm " B" EX BITS=1 BOUND CONN2"B1"
     ModInstTerm " A" EX BITS=1 BOUND CONN2"A1"
   ModScalarInst "Fa0"
    [5]INSTTERMs
     ModInstTerm " Co" EX BITS=1 BOUND CONN2"C01"
     ModInstTerm " Ci" EX BITS=1 BOUND CONN2"Ci"
     ModInstTerm " S" EX BITS=1 BOUND CONN2"S0"
     ModInstTerm " B" EX BITS=1 BOUND CONN2"B0"
     ModInstTerm " A" EX BITS=1 BOUND CONN2"A0"
  [16]MODNETs
   ModScalarNet "C12" EXBITS=1
    CONNECTS ModInstTerms:"Fa2|Ci""Fa1|Co"
   ModScalarNet "C01" EXBITS=1
    CONNECTS ModInstTerms:"Fa1|Ci""Fa0|Co"
   ModScalarNet "Co" EXBITS=1
    CONNECTS ModTerms: "Co"
    CONNECTS ModInstTerms:"Fa2|Co"
   ModScalarNet "Ci" EXBITS=1
    CONNECTS ModTerms: "Ci"
    CONNECTS ModInstTerms:"Fa0|Ci"
   ModScalarNet "S3" EXBITS=1
    CONNECTS ModTerms: "S3"
   ModScalarNet "B3" EXBITS=1
    CONNECTS ModTerms: "B3"
   ModScalarNet "A3" EXBITS=1
    CONNECTS ModTerms: "A3"
   ModScalarNet "S2" EXBITS=1
    CONNECTS ModTerms: "S2"
    CONNECTS ModInstTerms:"Fa2|S"
   ModScalarNet "B2" EXBITS=1
    CONNECTS ModTerms: "B2"
    CONNECTS ModInstTerms:"Fa2|B"
   ModScalarNet "A2" EXBITS=1
    CONNECTS ModTerms: "A2"
    CONNECTS ModInstTerms:"Fa2|A"
   ModScalarNet "S1" EXBITS=1
    CONNECTS ModTerms: "S1"
    CONNECTS ModInstTerms:"Fa1|S"
   ModScalarNet "B1" EXBITS=1
    CONNECTS ModTerms: "B1"
    CONNECTS ModInstTerms:"Fa1|B"
   ModScalarNet "A1" EXBITS=1
    CONNECTS ModTerms: "A1"
    CONNECTS ModInstTerms:"Fa1|A"
   ModScalarNet "S0" EXBITS=1
    CONNECTS ModTerms: "S0"
    CONNECTS ModInstTerms:"Fa0|S"
   ModScalarNet "B0" EXBITS=1
    CONNECTS ModTerms: "B0"
    CONNECTS ModInstTerms:"Fa0|B"
   ModScalarNet "A0" EXBITS=1
    CONNECTS ModTerms: "A0"
    CONNECTS ModInstTerms:"Fa0|A"
  [14]MODTERMs
   ModScalarTerm "Co" EXBITS=1 output CONN2"Co"
   ModScalarTerm "Ci" EXBITS=1 input  CONN2"Ci"
   ModScalarTerm "S3" EXBITS=1 output CONN2"S3"
   ModScalarTerm "B3" EXBITS=1 input  CONN2"B3"
   ModScalarTerm "A3" EXBITS=1 input  CONN2"A3"
   ModScalarTerm "S2" EXBITS=1 output CONN2"S2"
   ModScalarTerm "B2" EXBITS=1 input  CONN2"B2"
   ModScalarTerm "A2" EXBITS=1 input  CONN2"A2"
   ModScalarTerm "S1" EXBITS=1 output CONN2"S1"
   ModScalarTerm "B1" EXBITS=1 input  CONN2"B1"
   ModScalarTerm "A1" EXBITS=1 input  CONN2"A1"
   ModScalarTerm "S0" EXBITS=1 output CONN2"S0"
   ModScalarTerm "B0" EXBITS=1 input  CONN2"B0"
   ModScalarTerm "A0" EXBITS=1 input  CONN2"A0"


______________________________  Design"Lib|Or|netlist"

==================== BLOCK DOMAIN ====================

[1]BLOCK
 Block 
  [3]NETs
   ScalarNet "N__0" EXBITS=1 ISPREF
    CONNECTS Terms: "A"
   ScalarNet "N__1" EXBITS=1 ISPREF
    CONNECTS Terms: "B"
   ScalarNet "N__2" EXBITS=1 ISPREF
    CONNECTS Terms: "Y"
  [3]TERMs
   ScalarTerm "A" EXBITS=1 input  CONN2"N__0" PINCON=default
   ScalarTerm "B" EXBITS=1 input  CONN2"N__1" PINCON=default
   ScalarTerm "Y" EXBITS=1 output CONN2"N__2" PINCON=default

==================== MODULE DOMAIN ====================

[0]MODINSTHEADERs

[1]MODULE
 Module "Or" TOP
  [3]MODNETs
   ModScalarNet "N__0" EXBITS=1
    CONNECTS ModTerms: "A"
   ModScalarNet "N__1" EXBITS=1
    CONNECTS ModTerms: "B"
   ModScalarNet "N__2" EXBITS=1
    CONNECTS ModTerms: "Y"
  [3]MODTERMs
   ModScalarTerm "A" EXBITS=1 input  CONN2"N__0"
   ModScalarTerm "B" EXBITS=1 input  CONN2"N__1"
   ModScalarTerm "Y" EXBITS=1 output CONN2"N__2"


______________________________  Design"Lib|Xor|netlist"

==================== BLOCK DOMAIN ====================

[1]BLOCK
 Block 
  [3]NETs
   ScalarNet "N__0" EXBITS=1 ISPREF
    CONNECTS Terms: "A"
   ScalarNet "N__1" EXBITS=1 ISPREF
    CONNECTS Terms: "B"
   ScalarNet "N__2" EXBITS=1 ISPREF
    CONNECTS Terms: "Y"
  [3]TERMs
   ScalarTerm "A" EXBITS=1 input  CONN2"N__0" PINCON=default
   ScalarTerm "B" EXBITS=1 input  CONN2"N__1" PINCON=default
   ScalarTerm "Y" EXBITS=1 output CONN2"N__2" PINCON=default

==================== MODULE DOMAIN ====================

[0]MODINSTHEADERs

[1]MODULE
 Module "Xor" TOP
  [3]MODNETs
   ModScalarNet "N__0" EXBITS=1
    CONNECTS ModTerms: "A"
   ModScalarNet "N__1" EXBITS=1
    CONNECTS ModTerms: "B"
   ModScalarNet "N__2" EXBITS=1
    CONNECTS ModTerms: "Y"
  [3]MODTERMs
   ModScalarTerm "A" EXBITS=1 input  CONN2"N__0"
   ModScalarTerm "B" EXBITS=1 input  CONN2"N__1"
   ModScalarTerm "Y" EXBITS=1 output CONN2"N__2"


______________________________  Design"Lib|And|netlist"

==================== BLOCK DOMAIN ====================

[1]BLOCK
 Block 
  [3]NETs
   ScalarNet "N__0" EXBITS=1 ISPREF
    CONNECTS Terms: "A"
   ScalarNet "N__1" EXBITS=1 ISPREF
    CONNECTS Terms: "B"
   ScalarNet "N__2" EXBITS=1 ISPREF
    CONNECTS Terms: "Y"
  [3]TERMs
   ScalarTerm "A" EXBITS=1 input  CONN2"N__0" PINCON=default
   ScalarTerm "B" EXBITS=1 input  CONN2"N__1" PINCON=default
   ScalarTerm "Y" EXBITS=1 output CONN2"N__2" PINCON=default

==================== MODULE DOMAIN ====================

[0]MODINSTHEADERs

[1]MODULE
 Module "And" TOP
  [3]MODNETs
   ModScalarNet "N__0" EXBITS=1
    CONNECTS ModTerms: "A"
   ModScalarNet "N__1" EXBITS=1
    CONNECTS ModTerms: "B"
   ModScalarNet "N__2" EXBITS=1
    CONNECTS ModTerms: "Y"
  [3]MODTERMs
   ModScalarTerm "A" EXBITS=1 input  CONN2"N__0"
   ModScalarTerm "B" EXBITS=1 input  CONN2"N__1"
   ModScalarTerm "Y" EXBITS=1 output CONN2"N__2"


______________________________  Design"Lib3bitAdder|FAdetach|netlist"

==================== BLOCK DOMAIN ====================

[1]BLOCK
 Block 
  [3]INSTHEADERs
   InstHeader  BOUND=> Design"Lib|Or|netlist"
    [1]INST
     ScalarInst "Or1" R0 (0,0)
      [3]INSTTERMs
       InstTerm " A" EX BITS=1 BOUND CONN2"H1c"
       InstTerm " B" EX BITS=1 BOUND CONN2"H2c"
       InstTerm " Y" EX BITS=1 BOUND CONN2"Co"
   InstHeader  BOUND=> Design"Lib|And|netlist"
    [2]INSTs
     ScalarInst "Ha1/And1" R0 (0,0)
      [3]INSTTERMs
       InstTerm " A" EX BITS=1 BOUND CONN2"A"
       InstTerm " B" EX BITS=1 BOUND CONN2"B"
       InstTerm " Y" EX BITS=1 BOUND CONN2"H1c"
     ScalarInst "Ha2/And1" R0 (0,0)
      [3]INSTTERMs
       InstTerm " A" EX BITS=1 BOUND CONN2"H1s"
       InstTerm " B" EX BITS=1 BOUND CONN2"Ci"
       InstTerm " Y" EX BITS=1 BOUND CONN2"H2c"
   InstHeader  BOUND=> Design"Lib|Xor|netlist"
    [2]INSTs
     ScalarInst "Ha1/Xor1" R0 (0,0)
      [3]INSTTERMs
       InstTerm " A" EX BITS=1 BOUND CONN2"A"
       InstTerm " B" EX BITS=1 BOUND CONN2"B"
       InstTerm " Y" EX BITS=1 BOUND CONN2"H1s"
     ScalarInst "Ha2/Xor1" R0 (0,0)
      [3]INSTTERMs
       InstTerm " A" EX BITS=1 BOUND CONN2"H1s"
       InstTerm " B" EX BITS=1 BOUND CONN2"Ci"
       InstTerm " Y" EX BITS=1 BOUND CONN2"S"
  [8]NETs
   ScalarNet "H2c" EXBITS=1 ISPREF
    CONNECTS InstTerms: "Or1|B" "Ha2/And1|Y"
   ScalarNet "H1s" EXBITS=1 ISPREF
    CONNECTS InstTerms: "Ha1/Xor1|Y" "Ha2/Xor1|A" "Ha2/And1|A"
   ScalarNet "H1c" EXBITS=1 ISPREF
    CONNECTS InstTerms: "Or1|A" "Ha1/And1|Y"
   ScalarNet "S" EXBITS=1 ISPREF
    CONNECTS Terms: "S"
    CONNECTS InstTerms: "Ha2/Xor1|Y"
   ScalarNet "Co" EXBITS=1 ISPREF
    CONNECTS Terms: "Co"
    CONNECTS InstTerms: "Or1|Y"
   ScalarNet "Ci" EXBITS=1 ISPREF
    CONNECTS Terms: "Ci"
    CONNECTS InstTerms: "Ha2/Xor1|B" "Ha2/And1|B"
   ScalarNet "B" EXBITS=1 ISPREF
    CONNECTS Terms: "B"
    CONNECTS InstTerms: "Ha1/Xor1|B" "Ha1/And1|B"
   ScalarNet "A" EXBITS=1 ISPREF
    CONNECTS Terms: "A"
    CONNECTS InstTerms: "Ha1/Xor1|A" "Ha1/And1|A"
  [5]TERMs
   ScalarTerm "S" EXBITS=1 output CONN2"S" PINCON=default
   ScalarTerm "Co" EXBITS=1 output CONN2"Co" PINCON=default
   ScalarTerm "Ci" EXBITS=1 input  CONN2"Ci" PINCON=default
   ScalarTerm "B" EXBITS=1 input  CONN2"B" PINCON=default
   ScalarTerm "A" EXBITS=1 input  CONN2"A" PINCON=default

==================== MODULE DOMAIN ====================

[3]MODINSTHEADERs
 ModInstHeader "Lib|Or|netlist" BOUND=> Design"Lib|Or|netlist"
  [1]MODDESIGNINST
   ModScalarInst "FullAdderMod"|"Or1" BOUND "Or"[TOP]
 ModInstHeader "Lib|And|netlist" BOUND=> Design"Lib|And|netlist"
  [1]MODDESIGNINST
   ModScalarInst "HalfAdderMod"|"And1" BOUND "And"[TOP]
 ModInstHeader "Lib|Xor|netlist" BOUND=> Design"Lib|Xor|netlist"
  [1]MODDESIGNINST
   ModScalarInst "HalfAdderMod"|"Xor1" BOUND "Xor"[TOP]

[2]MODULEs
 Module "FullAdderMod" TOP
  [1]MODMODULEINSTHEADER
   ModModuleInstHeader "HalfAdderMod" BOUND=> Module"HalfAdderMod"
    [2]MODMODULEINSTs
     ModModuleScalarInst "Ha1"
      [4]INSTTERMs
       ModInstTerm " A" EX BITS=1 BOUND CONN2"A"
       ModInstTerm " B" EX BITS=1 BOUND CONN2"B"
       ModInstTerm " C" EX BITS=1 BOUND CONN2"H1c"
       ModInstTerm " S" EX BITS=1 BOUND CONN2"H1s"
     ModModuleScalarInst "Ha2"
      [4]INSTTERMs
       ModInstTerm " A" EX BITS=1 BOUND CONN2"H1s"
       ModInstTerm " B" EX BITS=1 BOUND CONN2"Ci"
       ModInstTerm " C" EX BITS=1 BOUND CONN2"H2c"
       ModInstTerm " S" EX BITS=1 BOUND CONN2"S"
  [1]MODDESIGNINST
   ModScalarInst "Or1"
    [3]INSTTERMs
     ModInstTerm " A" EX BITS=1 BOUND CONN2"H1c"
     ModInstTerm " B" EX BITS=1 BOUND CONN2"H2c"
     ModInstTerm " Y" EX BITS=1 BOUND CONN2"Co"
  [8]MODNETs
   ModScalarNet "A" EXBITS=1
    CONNECTS ModTerms: "A"
    CONNECTS ModInstTerms:"Ha1|A"
   ModScalarNet "B" EXBITS=1
    CONNECTS ModTerms: "B"
    CONNECTS ModInstTerms:"Ha1|B"
   ModScalarNet "Ci" EXBITS=1
    CONNECTS ModTerms: "Ci"
    CONNECTS ModInstTerms:"Ha2|B"
   ModScalarNet "Co" EXBITS=1
    CONNECTS ModTerms: "Co"
    CONNECTS ModInstTerms:"Or1|Y"
   ModScalarNet "S" EXBITS=1
    CONNECTS ModTerms: "S"
    CONNECTS ModInstTerms:"Ha2|S"
   ModScalarNet "H1c" EXBITS=1
    CONNECTS ModInstTerms:"Ha1|C""Or1|A"
   ModScalarNet "H1s" EXBITS=1
    CONNECTS ModInstTerms:"Ha1|S""Ha2|A"
   ModScalarNet "H2c" EXBITS=1
    CONNECTS ModInstTerms:"Ha2|C""Or1|B"
  [5]MODTERMs
   ModScalarTerm "A" EXBITS=1 input  CONN2"A"
   ModScalarTerm "B" EXBITS=1 input  CONN2"B"
   ModScalarTerm "Ci" EXBITS=1 input  CONN2"Ci"
   ModScalarTerm "Co" EXBITS=1 output CONN2"Co"
   ModScalarTerm "S" EXBITS=1 output CONN2"S"
 Module "HalfAdderMod"
  [2]MODDESIGNINSTs
   ModScalarInst "Xor1"
    [3]INSTTERMs
     ModInstTerm " A" EX BITS=1 BOUND CONN2"A"
     ModInstTerm " B" EX BITS=1 BOUND CONN2"B"
     ModInstTerm " Y" EX BITS=1 BOUND CONN2"S"
   ModScalarInst "And1"
    [3]INSTTERMs
     ModInstTerm " A" EX BITS=1 BOUND CONN2"A"
     ModInstTerm " B" EX BITS=1 BOUND CONN2"B"
     ModInstTerm " Y" EX BITS=1 BOUND CONN2"C"
  [4]MODNETs
   ModScalarNet "A" EXBITS=1
    CONNECTS ModTerms: "A"
    CONNECTS ModInstTerms:"Xor1|A""And1|A"
   ModScalarNet "B" EXBITS=1
    CONNECTS ModTerms: "B"
    CONNECTS ModInstTerms:"Xor1|B""And1|B"
   ModScalarNet "C" EXBITS=1
    CONNECTS ModTerms: "C"
    CONNECTS ModInstTerms:"And1|Y"
   ModScalarNet "S" EXBITS=1
    CONNECTS ModTerms: "S"
    CONNECTS ModInstTerms:"Xor1|Y"
  [4]MODTERMs
   ModScalarTerm "A" EXBITS=1 input  CONN2"A"
   ModScalarTerm "B" EXBITS=1 input  CONN2"B"
   ModScalarTerm "C" EXBITS=1 output CONN2"C"
   ModScalarTerm "S" EXBITS=1 output CONN2"S"



||||||||||||||||||||||||||||||||||||||||||| Embed Or |||||||||||||||||||||||||||||||||||||||||||



Currently open Designs:

______________________________  Design"Lib3bitAdder|Adder3bit|netlist"

==================== BLOCK DOMAIN ====================

[1]BLOCK
 Block 
  [1]INSTHEADER
   InstHeader  BOUND=> Design"Lib3bitAdder|FAdetach|netlist"
    [3]INSTs
     ScalarInst "Fa0" R0 (0,0)
      [5]INSTTERMs
       InstTerm " Co" EX BITS=1 BOUND CONN2"C01"
       InstTerm " Ci" EX BITS=1 BOUND CONN2"Ci"
       InstTerm " S" EX BITS=1 BOUND CONN2"S0"
       InstTerm " B" EX BITS=1 BOUND CONN2"B0"
       InstTerm " A" EX BITS=1 BOUND CONN2"A0"
     ScalarInst "Fa1" R0 (0,0)
      [5]INSTTERMs
       InstTerm " Co" EX BITS=1 BOUND CONN2"C12"
       InstTerm " Ci" EX BITS=1 BOUND CONN2"C01"
       InstTerm " S" EX BITS=1 BOUND CONN2"S1"
       InstTerm " B" EX BITS=1 BOUND CONN2"B1"
       InstTerm " A" EX BITS=1 BOUND CONN2"A1"
     ScalarInst "Fa2" R0 (0,0)
      [5]INSTTERMs
       InstTerm " Co" EX BITS=1 BOUND CONN2"Co"
       InstTerm " Ci" EX BITS=1 BOUND CONN2"C12"
       InstTerm " S" EX BITS=1 BOUND CONN2"S2"
       InstTerm " B" EX BITS=1 BOUND CONN2"B2"
       InstTerm " A" EX BITS=1 BOUND CONN2"A2"
  [16]NETs
   ScalarNet "A0" EXBITS=1 ISPREF
    CONNECTS Terms: "A0"
    CONNECTS InstTerms: "Fa0|A"
   ScalarNet "B0" EXBITS=1 ISPREF
    CONNECTS Terms: "B0"
    CONNECTS InstTerms: "Fa0|B"
   ScalarNet "S0" EXBITS=1 ISPREF
    CONNECTS Terms: "S0"
    CONNECTS InstTerms: "Fa0|S"
   ScalarNet "A1" EXBITS=1 ISPREF
    CONNECTS Terms: "A1"
    CONNECTS InstTerms: "Fa1|A"
   ScalarNet "B1" EXBITS=1 ISPREF
    CONNECTS Terms: "B1"
    CONNECTS InstTerms: "Fa1|B"
   ScalarNet "S1" EXBITS=1 ISPREF
    CONNECTS Terms: "S1"
    CONNECTS InstTerms: "Fa1|S"
   ScalarNet "A2" EXBITS=1 ISPREF
    CONNECTS Terms: "A2"
    CONNECTS InstTerms: "Fa2|A"
   ScalarNet "B2" EXBITS=1 ISPREF
    CONNECTS Terms: "B2"
    CONNECTS InstTerms: "Fa2|B"
   ScalarNet "S2" EXBITS=1 ISPREF
    CONNECTS Terms: "S2"
    CONNECTS InstTerms: "Fa2|S"
   ScalarNet "A3" EXBITS=1 ISPREF
    CONNECTS Terms: "A3"
   ScalarNet "B3" EXBITS=1 ISPREF
    CONNECTS Terms: "B3"
   ScalarNet "S3" EXBITS=1 ISPREF
    CONNECTS Terms: "S3"
   ScalarNet "Ci" EXBITS=1 ISPREF
    CONNECTS Terms: "Ci"
    CONNECTS InstTerms: "Fa0|Ci"
   ScalarNet "Co" EXBITS=1 ISPREF
    CONNECTS Terms: "Co"
    CONNECTS InstTerms: "Fa2|Co"
   ScalarNet "C01" EXBITS=1 ISPREF
    CONNECTS InstTerms: "Fa1|Ci" "Fa0|Co"
   ScalarNet "C12" EXBITS=1 ISPREF
    CONNECTS InstTerms: "Fa2|Ci" "Fa1|Co"
  [14]TERMs
   ScalarTerm "A0" EXBITS=1 input  CONN2"A0" PINCON=default
   ScalarTerm "B0" EXBITS=1 input  CONN2"B0" PINCON=default
   ScalarTerm "S0" EXBITS=1 output CONN2"S0" PINCON=default
   ScalarTerm "A1" EXBITS=1 input  CONN2"A1" PINCON=default
   ScalarTerm "B1" EXBITS=1 input  CONN2"B1" PINCON=default
   ScalarTerm "S1" EXBITS=1 output CONN2"S1" PINCON=default
   ScalarTerm "A2" EXBITS=1 input  CONN2"A2" PINCON=default
   ScalarTerm "B2" EXBITS=1 input  CONN2"B2" PINCON=default
   ScalarTerm "S2" EXBITS=1 output CONN2"S2" PINCON=default
   ScalarTerm "A3" EXBITS=1 input  CONN2"A3" PINCON=default
   ScalarTerm "B3" EXBITS=1 input  CONN2"B3" PINCON=default
   ScalarTerm "S3" EXBITS=1 output CONN2"S3" PINCON=default
   ScalarTerm "Ci" EXBITS=1 input  CONN2"Ci" PINCON=default
   ScalarTerm "Co" EXBITS=1 output CONN2"Co" PINCON=default

==================== MODULE DOMAIN ====================

[1]MODINSTHEADER
 ModInstHeader "Lib3bitAdder|FAdetach|netlist" BOUND=> Design"Lib3bitAdder|FAdetach|netlist"
  [3]MODDESIGNINSTs
   ModScalarInst "Adder3bitMod"|"Fa0" BOUND "FullAdderMod"[TOP]
   ModScalarInst "Adder3bitMod"|"Fa1" BOUND "FullAdderMod"[TOP]
   ModScalarInst "Adder3bitMod"|"Fa2" BOUND "FullAdderMod"[TOP]

[1]MODULE
 Module "Adder3bitMod" TOP
  [3]MODDESIGNINSTs
   ModScalarInst "Fa2"
    [5]INSTTERMs
     ModInstTerm " Co" EX BITS=1 BOUND CONN2"Co"
     ModInstTerm " Ci" EX BITS=1 BOUND CONN2"C12"
     ModInstTerm " S" EX BITS=1 BOUND CONN2"S2"
     ModInstTerm " B" EX BITS=1 BOUND CONN2"B2"
     ModInstTerm " A" EX BITS=1 BOUND CONN2"A2"
   ModScalarInst "Fa1"
    [5]INSTTERMs
     ModInstTerm " Co" EX BITS=1 BOUND CONN2"C12"
     ModInstTerm " Ci" EX BITS=1 BOUND CONN2"C01"
     ModInstTerm " S" EX BITS=1 BOUND CONN2"S1"
     ModInstTerm " B" EX BITS=1 BOUND CONN2"B1"
     ModInstTerm " A" EX BITS=1 BOUND CONN2"A1"
   ModScalarInst "Fa0"
    [5]INSTTERMs
     ModInstTerm " Co" EX BITS=1 BOUND CONN2"C01"
     ModInstTerm " Ci" EX BITS=1 BOUND CONN2"Ci"
     ModInstTerm " S" EX BITS=1 BOUND CONN2"S0"
     ModInstTerm " B" EX BITS=1 BOUND CONN2"B0"
     ModInstTerm " A" EX BITS=1 BOUND CONN2"A0"
  [16]MODNETs
   ModScalarNet "C12" EXBITS=1
    CONNECTS ModInstTerms:"Fa2|Ci""Fa1|Co"
   ModScalarNet "C01" EXBITS=1
    CONNECTS ModInstTerms:"Fa1|Ci""Fa0|Co"
   ModScalarNet "Co" EXBITS=1
    CONNECTS ModTerms: "Co"
    CONNECTS ModInstTerms:"Fa2|Co"
   ModScalarNet "Ci" EXBITS=1
    CONNECTS ModTerms: "Ci"
    CONNECTS ModInstTerms:"Fa0|Ci"
   ModScalarNet "S3" EXBITS=1
    CONNECTS ModTerms: "S3"
   ModScalarNet "B3" EXBITS=1
    CONNECTS ModTerms: "B3"
   ModScalarNet "A3" EXBITS=1
    CONNECTS ModTerms: "A3"
   ModScalarNet "S2" EXBITS=1
    CONNECTS ModTerms: "S2"
    CONNECTS ModInstTerms:"Fa2|S"
   ModScalarNet "B2" EXBITS=1
    CONNECTS ModTerms: "B2"
    CONNECTS ModInstTerms:"Fa2|B"
   ModScalarNet "A2" EXBITS=1
    CONNECTS ModTerms: "A2"
    CONNECTS ModInstTerms:"Fa2|A"
   ModScalarNet "S1" EXBITS=1
    CONNECTS ModTerms: "S1"
    CONNECTS ModInstTerms:"Fa1|S"
   ModScalarNet "B1" EXBITS=1
    CONNECTS ModTerms: "B1"
    CONNECTS ModInstTerms:"Fa1|B"
   ModScalarNet "A1" EXBITS=1
    CONNECTS ModTerms: "A1"
    CONNECTS ModInstTerms:"Fa1|A"
   ModScalarNet "S0" EXBITS=1
    CONNECTS ModTerms: "S0"
    CONNECTS ModInstTerms:"Fa0|S"
   ModScalarNet "B0" EXBITS=1
    CONNECTS ModTerms: "B0"
    CONNECTS ModInstTerms:"Fa0|B"
   ModScalarNet "A0" EXBITS=1
    CONNECTS ModTerms: "A0"
    CONNECTS ModInstTerms:"Fa0|A"
  [14]MODTERMs
   ModScalarTerm "Co" EXBITS=1 output CONN2"Co"
   ModScalarTerm "Ci" EXBITS=1 input  CONN2"Ci"
   ModScalarTerm "S3" EXBITS=1 output CONN2"S3"
   ModScalarTerm "B3" EXBITS=1 input  CONN2"B3"
   ModScalarTerm "A3" EXBITS=1 input  CONN2"A3"
   ModScalarTerm "S2" EXBITS=1 output CONN2"S2"
   ModScalarTerm "B2" EXBITS=1 input  CONN2"B2"
   ModScalarTerm "A2" EXBITS=1 input  CONN2"A2"
   ModScalarTerm "S1" EXBITS=1 output CONN2"S1"
   ModScalarTerm "B1" EXBITS=1 input  CONN2"B1"
   ModScalarTerm "A1" EXBITS=1 input  CONN2"A1"
   ModScalarTerm "S0" EXBITS=1 output CONN2"S0"
   ModScalarTerm "B0" EXBITS=1 input  CONN2"B0"
   ModScalarTerm "A0" EXBITS=1 input  CONN2"A0"


______________________________  Design"Lib|Or|netlist"

==================== BLOCK DOMAIN ====================

[1]BLOCK
 Block 
  [3]NETs
   ScalarNet "N__0" EXBITS=1 ISPREF
    CONNECTS Terms: "A"
   ScalarNet "N__1" EXBITS=1 ISPREF
    CONNECTS Terms: "B"
   ScalarNet "N__2" EXBITS=1 ISPREF
    CONNECTS Terms: "Y"
  [3]TERMs
   ScalarTerm "A" EXBITS=1 input  CONN2"N__0" PINCON=default
   ScalarTerm "B" EXBITS=1 input  CONN2"N__1" PINCON=default
   ScalarTerm "Y" EXBITS=1 output CONN2"N__2" PINCON=default

==================== MODULE DOMAIN ====================

[0]MODINSTHEADERs

[1]MODULE
 Module "Or" TOP
  [3]MODNETs
   ModScalarNet "N__0" EXBITS=1
    CONNECTS ModTerms: "A"
   ModScalarNet "N__1" EXBITS=1
    CONNECTS ModTerms: "B"
   ModScalarNet "N__2" EXBITS=1
    CONNECTS ModTerms: "Y"
  [3]MODTERMs
   ModScalarTerm "A" EXBITS=1 input  CONN2"N__0"
   ModScalarTerm "B" EXBITS=1 input  CONN2"N__1"
   ModScalarTerm "Y" EXBITS=1 output CONN2"N__2"


______________________________  Design"Lib|Xor|netlist"

==================== BLOCK DOMAIN ====================

[1]BLOCK
 Block 
  [3]NETs
   ScalarNet "N__0" EXBITS=1 ISPREF
    CONNECTS Terms: "A"
   ScalarNet "N__1" EXBITS=1 ISPREF
    CONNECTS Terms: "B"
   ScalarNet "N__2" EXBITS=1 ISPREF
    CONNECTS Terms: "Y"
  [3]TERMs
   ScalarTerm "A" EXBITS=1 input  CONN2"N__0" PINCON=default
   ScalarTerm "B" EXBITS=1 input  CONN2"N__1" PINCON=default
   ScalarTerm "Y" EXBITS=1 output CONN2"N__2" PINCON=default

==================== MODULE DOMAIN ====================

[0]MODINSTHEADERs

[1]MODULE
 Module "Xor" TOP
  [3]MODNETs
   ModScalarNet "N__0" EXBITS=1
    CONNECTS ModTerms: "A"
   ModScalarNet "N__1" EXBITS=1
    CONNECTS ModTerms: "B"
   ModScalarNet "N__2" EXBITS=1
    CONNECTS ModTerms: "Y"
  [3]MODTERMs
   ModScalarTerm "A" EXBITS=1 input  CONN2"N__0"
   ModScalarTerm "B" EXBITS=1 input  CONN2"N__1"
   ModScalarTerm "Y" EXBITS=1 output CONN2"N__2"


______________________________  Design"Lib|And|netlist"

==================== BLOCK DOMAIN ====================

[1]BLOCK
 Block 
  [3]NETs
   ScalarNet "N__0" EXBITS=1 ISPREF
    CONNECTS Terms: "A"
   ScalarNet "N__1" EXBITS=1 ISPREF
    CONNECTS Terms: "B"
   ScalarNet "N__2" EXBITS=1 ISPREF
    CONNECTS Terms: "Y"
  [3]TERMs
   ScalarTerm "A" EXBITS=1 input  CONN2"N__0" PINCON=default
   ScalarTerm "B" EXBITS=1 input  CONN2"N__1" PINCON=default
   ScalarTerm "Y" EXBITS=1 output CONN2"N__2" PINCON=default

==================== MODULE DOMAIN ====================

[0]MODINSTHEADERs

[1]MODULE
 Module "And" TOP
  [3]MODNETs
   ModScalarNet "N__0" EXBITS=1
    CONNECTS ModTerms: "A"
   ModScalarNet "N__1" EXBITS=1
    CONNECTS ModTerms: "B"
   ModScalarNet "N__2" EXBITS=1
    CONNECTS ModTerms: "Y"
  [3]MODTERMs
   ModScalarTerm "A" EXBITS=1 input  CONN2"N__0"
   ModScalarTerm "B" EXBITS=1 input  CONN2"N__1"
   ModScalarTerm "Y" EXBITS=1 output CONN2"N__2"


______________________________  Design"Lib3bitAdder|FAdetach|netlist"

==================== BLOCK DOMAIN ====================

[1]BLOCK
 Block 
  [2]INSTHEADERs
   InstHeader  BOUND=> Design"Lib|And|netlist"
    [2]INSTs
     ScalarInst "Ha1/And1" R0 (0,0)
      [3]INSTTERMs
       InstTerm " A" EX BITS=1 BOUND CONN2"A"
       InstTerm " B" EX BITS=1 BOUND CONN2"B"
       InstTerm " Y" EX BITS=1 BOUND CONN2"H1c"
     ScalarInst "Ha2/And1" R0 (0,0)
      [3]INSTTERMs
       InstTerm " A" EX BITS=1 BOUND CONN2"H1s"
       InstTerm " B" EX BITS=1 BOUND CONN2"Ci"
       InstTerm " Y" EX BITS=1 BOUND CONN2"H2c"
   InstHeader  BOUND=> Design"Lib|Xor|netlist"
    [2]INSTs
     ScalarInst "Ha1/Xor1" R0 (0,0)
      [3]INSTTERMs
       InstTerm " A" EX BITS=1 BOUND CONN2"A"
       InstTerm " B" EX BITS=1 BOUND CONN2"B"
       InstTerm " Y" EX BITS=1 BOUND CONN2"H1s"
     ScalarInst "Ha2/Xor1" R0 (0,0)
      [3]INSTTERMs
       InstTerm " A" EX BITS=1 BOUND CONN2"H1s"
       InstTerm " B" EX BITS=1 BOUND CONN2"Ci"
       InstTerm " Y" EX BITS=1 BOUND CONN2"S"
  [8]NETs
   ScalarNet "H2c" EXBITS=1 ISPREF
    CONNECTS InstTerms: "Ha2/And1|Y"
   ScalarNet "H1s" EXBITS=1 ISPREF
    CONNECTS InstTerms: "Ha1/Xor1|Y" "Ha2/Xor1|A" "Ha2/And1|A"
   ScalarNet "H1c" EXBITS=1 ISPREF
    CONNECTS InstTerms: "Ha1/And1|Y"
   ScalarNet "S" EXBITS=1 ISPREF
    CONNECTS Terms: "S"
    CONNECTS InstTerms: "Ha2/Xor1|Y"
   ScalarNet "Co" EXBITS=1 ISPREF
    CONNECTS Terms: "Co"
   ScalarNet "Ci" EXBITS=1 ISPREF
    CONNECTS Terms: "Ci"
    CONNECTS InstTerms: "Ha2/Xor1|B" "Ha2/And1|B"
   ScalarNet "B" EXBITS=1 ISPREF
    CONNECTS Terms: "B"
    CONNECTS InstTerms: "Ha1/Xor1|B" "Ha1/And1|B"
   ScalarNet "A" EXBITS=1 ISPREF
    CONNECTS Terms: "A"
    CONNECTS InstTerms: "Ha1/Xor1|A" "Ha1/And1|A"
  [5]TERMs
   ScalarTerm "S" EXBITS=1 output CONN2"S" PINCON=default
   ScalarTerm "Co" EXBITS=1 output CONN2"Co" PINCON=default
   ScalarTerm "Ci" EXBITS=1 input  CONN2"Ci" PINCON=default
   ScalarTerm "B" EXBITS=1 input  CONN2"B" PINCON=default
   ScalarTerm "A" EXBITS=1 input  CONN2"A" PINCON=default

==================== MODULE DOMAIN ====================

[2]MODINSTHEADERs
 ModInstHeader "Lib|And|netlist" BOUND=> Design"Lib|And|netlist"
  [1]MODDESIGNINST
   ModScalarInst "HalfAdderMod"|"And1" BOUND "And"[TOP]
 ModInstHeader "Lib|Xor|netlist" BOUND=> Design"Lib|Xor|netlist"
  [1]MODDESIGNINST
   ModScalarInst "HalfAdderMod"|"Xor1" BOUND "Xor"[TOP]

[3]MODULEs
 Module "FullAdderMod" TOP
  [2]MODMODULEINSTHEADERs
   ModModuleInstHeader "Or" BOUND=> Module"Or"
    [1]MODMODULEINST
     ModModuleScalarInst "Or1"
      [3]INSTTERMs
       ModInstTerm " A" EX BITS=1 BOUND CONN2"H1c"
       ModInstTerm " B" EX BITS=1 BOUND CONN2"H2c"
       ModInstTerm " Y" EX BITS=1 BOUND CONN2"Co"
   ModModuleInstHeader "HalfAdderMod" BOUND=> Module"HalfAdderMod"
    [2]MODMODULEINSTs
     ModModuleScalarInst "Ha1"
      [4]INSTTERMs
       ModInstTerm " A" EX BITS=1 BOUND CONN2"A"
       ModInstTerm " B" EX BITS=1 BOUND CONN2"B"
       ModInstTerm " C" EX BITS=1 BOUND CONN2"H1c"
       ModInstTerm " S" EX BITS=1 BOUND CONN2"H1s"
     ModModuleScalarInst "Ha2"
      [4]INSTTERMs
       ModInstTerm " A" EX BITS=1 BOUND CONN2"H1s"
       ModInstTerm " B" EX BITS=1 BOUND CONN2"Ci"
       ModInstTerm " C" EX BITS=1 BOUND CONN2"H2c"
       ModInstTerm " S" EX BITS=1 BOUND CONN2"S"
  [8]MODNETs
   ModScalarNet "A" EXBITS=1
    CONNECTS ModTerms: "A"
    CONNECTS ModInstTerms:"Ha1|A"
   ModScalarNet "B" EXBITS=1
    CONNECTS ModTerms: "B"
    CONNECTS ModInstTerms:"Ha1|B"
   ModScalarNet "Ci" EXBITS=1
    CONNECTS ModTerms: "Ci"
    CONNECTS ModInstTerms:"Ha2|B"
   ModScalarNet "Co" EXBITS=1
    CONNECTS ModTerms: "Co"
    CONNECTS ModInstTerms:"Or1|Y"
   ModScalarNet "S" EXBITS=1
    CONNECTS ModTerms: "S"
    CONNECTS ModInstTerms:"Ha2|S"
   ModScalarNet "H1c" EXBITS=1
    CONNECTS ModInstTerms:"Ha1|C""Or1|A"
   ModScalarNet "H1s" EXBITS=1
    CONNECTS ModInstTerms:"Ha1|S""Ha2|A"
   ModScalarNet "H2c" EXBITS=1
    CONNECTS ModInstTerms:"Ha2|C""Or1|B"
  [5]MODTERMs
   ModScalarTerm "A" EXBITS=1 input  CONN2"A"
   ModScalarTerm "B" EXBITS=1 input  CONN2"B"
   ModScalarTerm "Ci" EXBITS=1 input  CONN2"Ci"
   ModScalarTerm "Co" EXBITS=1 output CONN2"Co"
   ModScalarTerm "S" EXBITS=1 output CONN2"S"
 Module "HalfAdderMod"
  [2]MODDESIGNINSTs
   ModScalarInst "Xor1"
    [3]INSTTERMs
     ModInstTerm " A" EX BITS=1 BOUND CONN2"A"
     ModInstTerm " B" EX BITS=1 BOUND CONN2"B"
     ModInstTerm " Y" EX BITS=1 BOUND CONN2"S"
   ModScalarInst "And1"
    [3]INSTTERMs
     ModInstTerm " A" EX BITS=1 BOUND CONN2"A"
     ModInstTerm " B" EX BITS=1 BOUND CONN2"B"
     ModInstTerm " Y" EX BITS=1 BOUND CONN2"C"
  [4]MODNETs
   ModScalarNet "A" EXBITS=1
    CONNECTS ModTerms: "A"
    CONNECTS ModInstTerms:"Xor1|A""And1|A"
   ModScalarNet "B" EXBITS=1
    CONNECTS ModTerms: "B"
    CONNECTS ModInstTerms:"Xor1|B""And1|B"
   ModScalarNet "C" EXBITS=1
    CONNECTS ModTerms: "C"
    CONNECTS ModInstTerms:"And1|Y"
   ModScalarNet "S" EXBITS=1
    CONNECTS ModTerms: "S"
    CONNECTS ModInstTerms:"Xor1|Y"
  [4]MODTERMs
   ModScalarTerm "A" EXBITS=1 input  CONN2"A"
   ModScalarTerm "B" EXBITS=1 input  CONN2"B"
   ModScalarTerm "C" EXBITS=1 output CONN2"C"
   ModScalarTerm "S" EXBITS=1 output CONN2"S"
 Module "Or" EMBEDDED
  [3]MODNETs
   ModScalarNet "N__2" EXBITS=1
    CONNECTS ModTerms: "Y"
   ModScalarNet "N__1" EXBITS=1
    CONNECTS ModTerms: "B"
   ModScalarNet "N__0" EXBITS=1
    CONNECTS ModTerms: "A"
  [3]MODTERMs
   ModScalarTerm "Y" EXBITS=1 output CONN2"N__2"
   ModScalarTerm "B" EXBITS=1 input  CONN2"N__1"
   ModScalarTerm "A" EXBITS=1 input  CONN2"N__0"


...........Normal Termination........

