Created Lib in ./Lib
  Adding def for Lib to ./Lib to newly created libdefs file

Creating Gate schematic with 0r, 2 nand, Inv instances
Unconnected route is created in Gate view
An Ellipse is created in the Gate view
Net with Shape Route is created in Gate view

Creating Sample schematic with 3 Gate instances
An empty net with one terminal is created
A net with 2 routes and a shape is created
A net with 2 routes connecting to each other is created

......Normal completion......
