Design Lib/Gate/schematic schematic softMacro BBOX ((-135, -145) (655, 70))
Inst InvInst OF Lib/Inv/schematic R0 LOC (480, -60) BBOX ((445, -60) (605, -10))
Inst NandInst1 OF Lib/Nand/schematic R0 LOC (0, -140) BBOX ((-65, -140) (155, -70))
Inst NandInst2 OF Lib/Nand/schematic R0 LOC (260, -70) BBOX ((195, -70) (415, 0))
Inst OrInst OF Lib/Or/schematic R0 LOC (0, 0) BBOX ((-65, 0) (155, 70))
InstTerm InvInst of T1 is on N5
InstTerm InvInst of T2 is on N6
InstTerm NandInst1 of T1 is on N1
InstTerm NandInst1 of T2 is on N2
InstTerm NandInst1 of T3 is on N4
InstTerm NandInst2 of T1 is on N3
InstTerm NandInst2 of T2 is on N4
InstTerm NandInst2 of T3 is on N5
InstTerm OrInst of T1 is on N1
InstTerm OrInst of T2 is on N2
InstTerm OrInst of T3 is on N3
Net N1 signal
Net N2 signal
Net N3 signal
Net N4 signal
Net N5 signal
Net N6 signal
Net ShapeRouteNet signal
Route ST normal NET N1 START Pin P1-In[a]END SteinerSEG at ((-115, 45) (-80, 45)) on 231
Route ST normal NET N1 START SteinerEND InstTerm[NandInst1/T1] SEG at ((-80, 45) (-80, -95)) on 231SEG at ((-80, -95) (-65, -95)) on 231
Route ST normal NET N1 START SteinerEND InstTerm[OrInst/T1] SEG at ((-80, 45) (-65, 45)) on 231
Route ST normal NET N2 START Pin P2-In[b]END SteinerSEG at ((-115, 25) (-90, 25)) on 231
Route ST normal NET N2 START SteinerEND InstTerm[NandInst1/T2] SEG at ((-90, 25) (-90, -115)) on 231SEG at ((-90, -115) (-65, -115)) on 231
Route ST normal NET N2 START SteinerEND InstTerm[OrInst/T2] SEG at ((-90, 25) (-65, 25)) on 231
Route ST normal NET N3 START InstTerm[OrInst/T3] END InstTerm[NandInst2/T1] SEG at ((155, 35) (175, 35)) on 231SEG at ((175, 35) (175, -25)) on 231SEG at ((175, -25) (195, -25)) on 231
Route ST normal NET N4 START InstTerm[NandInst1/T3] END InstTerm[NandInst2/T2] SEG at ((155, -105) (175, -105)) on 231SEG at ((175, -105) (175, -45)) on 231SEG at ((175, -45) (195, -45)) on 231
Route ST normal NET N5 START InstTerm[NandInst2/T3] END InstTerm[InvInst/T1] SEG at ((415, -35) (445, -35)) on 231
Route ST normal NET N5 START NULL END NULL SEG at ((430, -35) (430, -125)) on 231
Route ST normal NET N6 START InstTerm[InvInst/T2] END Pin P3-Out[SUM]SEG at ((605, -35) (635, -35)) on 231
Route ST normal NET ShapeRouteNet START Ellipse at ((25, -45) (45, -25)) on 231/252 END NULL SEG at ((35, -35) (85, -35)) on 231
Route ST normal NET ShapeRouteNet START NULL END Ellipse at ((25, -45) (45, -25)) on 231/252 SEG at ((-65, -35) (35, -35)) on 231
Route ST normal START NULL END NULL SEG at ((105, -30) (105, -15)) on 231
Shape Ellipse at ((25, -45) (45, -25)) LPP 231/252 on net ShapeRouteNet
Shape Path at ((105, -55) (105, -40)) LPP 231/252
Shape Path at ((90, -35) (100, -35)) LPP 231/252 on net ShapeRouteNet
Shape PathSeg at ((104, -31) (106, -14)) LPP 231/252 ROUTE
Shape PathSeg at ((-115, 24) (-90, 26)) LPP 231/252 on net N2 ROUTE
Shape PathSeg at ((-115, 44) (-80, 46)) LPP 231/252 on net N1 ROUTE
Shape PathSeg at ((155, -106) (175, -104)) LPP 231/252 on net N4 ROUTE
Shape PathSeg at ((155, 34) (175, 36)) LPP 231/252 on net N3 ROUTE
Shape PathSeg at ((174, -105) (176, -45)) LPP 231/252 on net N4 ROUTE
Shape PathSeg at ((174, -25) (176, 35)) LPP 231/252 on net N3 ROUTE
Shape PathSeg at ((175, -26) (195, -24)) LPP 231/252 on net N3 ROUTE
Shape PathSeg at ((175, -46) (195, -44)) LPP 231/252 on net N4 ROUTE
Shape PathSeg at ((34, -36) (86, -34)) LPP 231/252 on net ShapeRouteNet ROUTE
Shape PathSeg at ((415, -36) (445, -34)) LPP 231/252 on net N5 ROUTE
Shape PathSeg at ((429, -125) (431, -35)) LPP 231/252 on net N5 ROUTE
Shape PathSeg at ((605, -36) (635, -34)) LPP 231/252 on net N6 ROUTE
Shape PathSeg at ((-66, -36) (36, -34)) LPP 231/252 on net ShapeRouteNet ROUTE
Shape PathSeg at ((-80, 44) (-65, 46)) LPP 231/252 on net N1 ROUTE
Shape PathSeg at ((-80, -96) (-65, -94)) LPP 231/252 on net N1 ROUTE
Shape PathSeg at ((-81, -95) (-79, 45)) LPP 231/252 on net N1 ROUTE
Shape PathSeg at ((-90, -116) (-65, -114)) LPP 231/252 on net N2 ROUTE
Shape PathSeg at ((-90, 24) (-65, 26)) LPP 231/252 on net N2 ROUTE
Shape PathSeg at ((-91, -115) (-89, 25)) LPP 231/252 on net N2 ROUTE
Shape Polygon at ((-135, 20) (-115, 30)) LPP 229/252 on pin P2-In
Shape Polygon at ((-135, 40) (-115, 50)) LPP 229/252 on pin P1-In
Shape Polygon at ((425, -145) (435, -125)) LPP 229/252 on pin P-Out
Shape Polygon at ((635, -40) (655, -30)) LPP 229/252 on pin P3-Out
Term a on N1 type input Pin=P1-In
Term b on N2 type input Pin=P2-In
Term SUM on N6 type output Pin=P3-Out
Term TermOnShapeRouteNet on ShapeRouteNet type input
Term Term-open on N5 type output Pin=P-Out
