Design LibSymbol/HalfAdder/symbol netlist none BBOX ((0, 0) (64, 50))
Inst And1 OF Lib/And/netlist R0 LOC (0, 0) BBOX ((0, 0) (0, 0))
InstTerm And1 of A is on N__0
InstTerm And1 of B is on N__1
InstTerm And1 of Y is on N__2
InstTerm Xor1 of A is on N__0
InstTerm Xor1 of B is on N__1
InstTerm Xor1 of Y is on N__3
Inst Xor1 OF Lib/Xor/netlist R0 LOC (0, 0) BBOX ((0, 0) (0, 0))
Net N__0 signal
Net N__1 signal
Net N__2 signal
Net N__3 signal
Shape Rect at ((0, 0) (64, 50)) LPP device/drawing
Shape Text"HalfAdder" at ((2, 23) (54, 30)) LPP text/labels
Term A on N__0 type input
Term B on N__1 type input
Term C on N__2 type output
Term S on N__3 type output
